# Blender v2.79 (sub 0) OBJ File: 'villageHouses.blend'
# www.blender.org
mtllib villageHouses_wpillar2.mtl
o Cube.008_Cube.006
v -5.401967 0.407279 -0.364263
v -5.401967 0.364263 -0.407279
v -5.452950 0.365455 -0.365455
v -5.401967 -0.364263 -0.407279
v -5.401967 -0.407279 -0.364263
v -5.452950 -0.365455 -0.365455
v -5.401967 0.407279 0.364263
v -5.452950 0.365455 0.365455
v -5.401967 0.364263 0.407279
v -5.401967 -0.407279 0.364263
v -5.401967 -0.364263 0.407279
v -5.452950 -0.365455 0.365455
v 5.401984 0.406832 -0.363801
v 5.452950 0.365455 -0.365455
v 5.401984 0.363801 -0.406832
v 5.401984 -0.406832 -0.363801
v 5.401984 -0.363801 -0.406832
v 5.452950 -0.365455 -0.365455
v 5.401984 0.363801 0.406832
v 5.452950 0.365455 0.365455
v 5.401984 0.406832 0.363801
v 5.401984 -0.406832 0.363801
v 5.452950 -0.365455 0.365455
v 5.401984 -0.363801 0.406832
v 3.686265 0.309155 0.352186
v 3.686265 0.352186 0.309155
v 3.584305 0.349848 0.306842
v 3.584305 0.306842 0.349848
v 1.868645 0.282792 0.325798
v 1.868645 0.325798 0.282792
v 1.766650 0.325442 0.282440
v 1.766650 0.282440 0.325442
v 0.051000 0.294506 0.337507
v 0.051000 0.337507 0.294506
v -0.051000 0.337500 0.294499
v -0.051000 0.294499 0.337500
v -1.766650 0.282200 0.325202
v -1.766650 0.325202 0.282200
v -1.868633 0.326006 0.282990
v -1.868633 0.282990 0.326006
v -3.686283 0.324698 0.367714
v -3.584317 0.322352 0.365368
v -3.584317 0.365368 0.322352
v -3.686283 0.367714 0.324698
v -3.686283 -0.324698 0.367714
v -3.686283 -0.367714 0.324698
v -3.584317 -0.365368 0.322352
v -3.584317 -0.322352 0.365368
v -1.868633 -0.282990 0.326006
v -1.868633 -0.326006 0.282990
v -1.766650 -0.325202 0.282200
v -1.766650 -0.282200 0.325202
v -0.051000 -0.294499 0.337500
v -0.051000 -0.337500 0.294499
v 0.051000 -0.337507 0.294506
v 0.051000 -0.294506 0.337507
v 1.766650 -0.282440 0.325442
v 1.766650 -0.325442 0.282440
v 1.868645 -0.325798 0.282792
v 1.868645 -0.282792 0.325798
v 3.686265 -0.309155 0.352186
v 3.584305 -0.306842 0.349848
v 3.584305 -0.349848 0.306842
v 3.686265 -0.352186 0.309155
v -3.686283 0.324698 -0.367714
v -3.686283 0.367714 -0.324698
v -3.584317 0.365368 -0.322352
v -3.584317 0.322352 -0.365368
v -1.868633 0.282990 -0.326006
v -1.868633 0.326006 -0.282990
v -1.766650 0.325202 -0.282200
v -1.766650 0.282200 -0.325202
v -0.051000 0.294499 -0.337500
v -0.051000 0.337500 -0.294499
v 0.051000 0.337507 -0.294506
v 0.051000 0.294506 -0.337507
v 1.766650 0.282440 -0.325442
v 1.766650 0.325442 -0.282440
v 1.868645 0.325798 -0.282792
v 1.868645 0.282792 -0.325798
v 3.686265 0.309155 -0.352186
v 3.584305 0.306842 -0.349848
v 3.584305 0.349848 -0.306842
v 3.686265 0.352186 -0.309155
v 3.686265 -0.309155 -0.352186
v 3.686265 -0.352186 -0.309155
v 3.584305 -0.349848 -0.306842
v 3.584305 -0.306842 -0.349848
v 1.868645 -0.282792 -0.325798
v 1.868645 -0.325798 -0.282792
v 1.766650 -0.325442 -0.282440
v 1.766650 -0.282440 -0.325442
v 0.051000 -0.294506 -0.337507
v 0.051000 -0.337507 -0.294506
v -0.051000 -0.337500 -0.294499
v -0.051000 -0.294499 -0.337500
v -1.766650 -0.282200 -0.325202
v -1.766650 -0.325202 -0.282200
v -1.868633 -0.326006 -0.282990
v -1.868633 -0.282990 -0.326006
v -3.686283 -0.324698 -0.367714
v -3.584317 -0.322352 -0.365368
v -3.584317 -0.365368 -0.322352
v -3.686283 -0.367714 -0.324698
vt 0.489110 0.017596
vt 0.488881 0.048444
vt 0.400927 0.046082
vt 0.402414 0.012272
vt 0.770515 0.120191
vt 0.770621 0.088106
vt 0.857114 0.087942
vt 0.856988 0.121159
vt 0.948210 0.011232
vt 0.948375 0.045287
vt 0.862027 0.045378
vt 0.861679 0.011892
vt 0.488554 0.083853
vt 0.400403 0.083984
vt 0.400823 0.050091
vt 0.488838 0.052547
vt 0.986917 0.011011
vt 0.987080 0.045141
vt 0.952950 0.045304
vt 0.952787 0.011174
vt 0.400884 0.121894
vt 0.400406 0.088001
vt 0.488558 0.087983
vt 0.488895 0.119288
vt 0.862122 0.121244
vt 0.862247 0.087885
vt 0.948471 0.087572
vt 0.948453 0.121675
vt 0.581117 0.014975
vt 0.581331 0.047011
vt 0.494077 0.048434
vt 0.494278 0.017710
vt 0.857110 0.083266
vt 0.770617 0.083249
vt 0.770457 0.051165
vt 0.856927 0.050049
vt 0.765451 0.083256
vt 0.678103 0.083434
vt 0.678098 0.051793
vt 0.765293 0.051214
vt 0.672944 0.083441
vt 0.586733 0.083432
vt 0.586522 0.051776
vt 0.672938 0.051807
vt 0.397836 0.012020
vt 0.396326 0.045928
vt 0.362418 0.044417
vt 0.363928 0.010509
vt 0.581564 0.083466
vt 0.493779 0.083803
vt 0.494051 0.052630
vt 0.581356 0.051777
vt 0.494108 0.119196
vt 0.493782 0.088024
vt 0.581568 0.088211
vt 0.581414 0.119901
vt 0.586579 0.119893
vt 0.586737 0.088236
vt 0.672948 0.088080
vt 0.672996 0.119714
vt 0.678156 0.119720
vt 0.678107 0.088079
vt 0.765455 0.088108
vt 0.765352 0.120150
vt 0.948468 0.083480
vt 0.862243 0.083314
vt 0.862061 0.049956
vt 0.948392 0.049378
vt 0.856537 0.012022
vt 0.856889 0.045365
vt 0.770408 0.046308
vt 0.769912 0.014235
vt 0.764755 0.014338
vt 0.765248 0.046364
vt 0.678084 0.047161
vt 0.677943 0.015710
vt 0.672789 0.015728
vt 0.672925 0.047178
vt 0.586491 0.046950
vt 0.586272 0.014943
vt 0.862095 0.125822
vt 0.948444 0.125765
vt 0.948336 0.159820
vt 0.861804 0.159307
vt 0.494141 0.123392
vt 0.581397 0.124667
vt 0.581238 0.156703
vt 0.494394 0.154116
vt 0.586557 0.124719
vt 0.672991 0.124343
vt 0.672908 0.155794
vt 0.586393 0.156726
vt 0.678150 0.124351
vt 0.765315 0.125001
vt 0.764877 0.157027
vt 0.678063 0.155802
vt 0.770475 0.125047
vt 0.856957 0.125843
vt 0.856662 0.159187
vt 0.770033 0.157122
vt 0.402540 0.159710
vt 0.402694 0.161707
vt 0.399957 0.159878
vt 0.400918 0.048085
vt 0.398321 0.046016
vt 0.400995 0.125903
vt 0.398389 0.125973
vt 0.400983 0.123900
vt 0.400450 0.085993
vt 0.397784 0.083996
vt 0.950906 0.159865
vt 0.948232 0.161865
vt 0.948290 0.047332
vt 0.950956 0.049332
vt 0.951017 0.121716
vt 0.948355 0.123721
vt 0.951030 0.083513
vt 0.948376 0.085526
vt 0.488945 0.123391
vt 0.489204 0.015562
vt 0.491708 0.015770
vt 0.491694 0.017815
vt 0.581174 0.012579
vt 0.583684 0.012491
vt 0.583701 0.014912
vt 0.672757 0.013418
vt 0.675351 0.013464
vt 0.675360 0.015758
vt 0.764742 0.011914
vt 0.767300 0.011870
vt 0.767337 0.014270
vt 0.859111 0.011986
vt 0.859086 0.009651
vt 0.861559 0.009600
vt 0.398207 0.050011
vt 0.398268 0.121979
vt 0.397787 0.087994
vt 0.988925 0.011079
vt 0.989087 0.045055
vt 0.951010 0.125734
vt 0.861689 0.161600
vt 0.489226 0.154239
vt 0.489324 0.156272
vt 0.581299 0.159098
vt 0.494478 0.156204
vt 0.672880 0.158104
vt 0.586359 0.159151
vt 0.764867 0.159451
vt 0.678075 0.158112
vt 0.856597 0.161532
vt 0.769958 0.159549
vn 0.0301 0.3824 -0.9235
vn 0.0301 -0.3824 -0.9235
vn -0.2853 -0.3490 -0.8926
vn -0.2853 0.3490 -0.8926
vn -0.0114 0.3820 0.9241
vn -0.0114 -0.3820 0.9241
vn -0.0241 -0.3820 0.9238
vn -0.0241 0.3820 0.9238
vn 0.2770 0.3500 -0.8948
vn 0.2770 -0.3500 -0.8948
vn -0.0357 -0.3818 -0.9236
vn -0.0357 0.3818 -0.9236
vn 0.0301 -0.9235 0.3824
vn -0.2853 -0.8926 0.3490
vn -0.2853 -0.8926 -0.3490
vn 0.0301 -0.9235 -0.3824
vn 0.8431 0.3802 0.3802
vn 0.8431 -0.3802 0.3802
vn 0.8431 -0.3802 -0.3802
vn 0.8431 0.3802 -0.3802
vn -0.2853 0.3490 0.8926
vn -0.2853 -0.3490 0.8926
vn 0.0301 -0.3824 0.9235
vn 0.0301 0.3824 0.9235
vn -0.0357 0.3818 0.9236
vn -0.0357 -0.3818 0.9236
vn 0.2770 -0.3500 0.8948
vn 0.2770 0.3500 0.8948
vn 0.0201 0.3816 -0.9241
vn 0.0201 -0.3816 -0.9241
vn 0.0300 -0.3824 -0.9235
vn 0.0300 0.3824 -0.9235
vn -0.0241 -0.9238 0.3820
vn -0.0114 -0.9241 0.3820
vn -0.0114 -0.9241 -0.3820
vn -0.0241 -0.9238 -0.3820
vn 0.0023 -0.9241 0.3820
vn 0.0045 -0.9237 0.3831
vn 0.0045 -0.9237 -0.3831
vn 0.0023 -0.9241 -0.3820
vn -0.0047 -0.9237 0.3831
vn 0.0004 -0.9243 0.3818
vn 0.0004 -0.9243 -0.3818
vn -0.0047 -0.9237 -0.3831
vn -0.8455 0.3775 -0.3775
vn -0.8455 -0.3775 -0.3775
vn -0.8455 -0.3775 0.3775
vn -0.8455 0.3775 0.3775
vn 0.0201 -0.9241 0.3816
vn 0.0300 -0.9235 0.3824
vn 0.0300 -0.9235 -0.3824
vn 0.0201 -0.9241 -0.3816
vn 0.0300 0.3824 0.9235
vn 0.0300 -0.3824 0.9235
vn 0.0201 -0.3816 0.9241
vn 0.0201 0.3816 0.9241
vn 0.0004 0.3818 0.9243
vn 0.0004 -0.3818 0.9243
vn -0.0047 -0.3831 0.9237
vn -0.0047 0.3831 0.9237
vn 0.0045 0.3831 0.9237
vn 0.0045 -0.3831 0.9237
vn 0.0023 -0.3820 0.9241
vn 0.0023 0.3820 0.9241
vn 0.2770 -0.8948 0.3500
vn -0.0357 -0.9236 0.3818
vn -0.0357 -0.9236 -0.3818
vn 0.2770 -0.8948 -0.3500
vn -0.0241 0.3820 -0.9238
vn -0.0241 -0.3820 -0.9238
vn -0.0114 -0.3820 -0.9241
vn -0.0114 0.3820 -0.9241
vn 0.0023 0.3820 -0.9241
vn 0.0023 -0.3820 -0.9241
vn 0.0045 -0.3831 -0.9237
vn 0.0045 0.3831 -0.9237
vn -0.0047 0.3831 -0.9237
vn -0.0047 -0.3831 -0.9237
vn 0.0004 -0.3818 -0.9243
vn 0.0004 0.3818 -0.9243
vn -0.0357 0.9236 0.3818
vn 0.2770 0.8948 0.3500
vn 0.2770 0.8948 -0.3500
vn -0.0357 0.9236 -0.3818
vn 0.0300 0.9235 0.3824
vn 0.0201 0.9241 0.3816
vn 0.0201 0.9241 -0.3816
vn 0.0300 0.9235 -0.3824
vn 0.0004 0.9243 0.3818
vn -0.0047 0.9237 0.3831
vn -0.0047 0.9237 -0.3831
vn 0.0004 0.9243 -0.3818
vn 0.0045 0.9237 0.3831
vn 0.0023 0.9241 0.3820
vn 0.0023 0.9241 -0.3820
vn 0.0045 0.9237 -0.3831
vn -0.0114 0.9241 0.3820
vn -0.0241 0.9238 0.3820
vn -0.0241 0.9238 -0.3820
vn -0.0114 0.9241 -0.3820
vn -0.2853 0.8926 -0.3490
vn -0.2853 0.8926 0.3490
vn 0.0301 0.9235 0.3824
vn 0.0301 0.9235 -0.3824
usemtl Material.001
s 1
f 65/1/1 101/2/2 4/3/3 2/4/4
f 29/5/5 60/6/6 62/7/7 28/8/8
f 15/9/9 17/10/10 85/11/11 81/12/12
f 46/13/13 10/14/14 5/15/15 104/16/16
f 20/17/17 23/18/18 18/19/19 14/20/20
f 9/21/21 11/22/22 45/23/23 41/24/24
f 25/25/25 61/26/26 24/27/27 19/28/28
f 69/29/29 100/30/30 102/31/31 68/32/32
f 63/33/33 59/34/34 90/35/35 87/36/36
f 58/37/37 55/38/38 94/39/39 91/40/40
f 54/41/41 51/42/42 98/43/43 95/44/44
f 3/45/45 6/46/46 12/47/47 8/48/48
f 50/49/49 47/50/50 103/51/51 99/52/52
f 42/53/53 48/54/54 49/55/55 40/56/56
f 37/57/57 52/58/58 53/59/59 36/60/60
f 33/61/61 56/62/62 57/63/63 32/64/64
f 22/65/65 64/66/66 86/67/67 16/68/68
f 82/69/69 88/70/70 89/71/71 80/72/72
f 77/73/73 92/74/74 93/75/75 76/76/76
f 73/77/77 96/78/78 97/79/79 72/80/80
f 26/81/81 21/82/82 13/83/83 84/84/84
f 43/85/85 39/86/86 70/87/87 67/88/88
f 38/89/89 35/90/90 74/91/91 71/92/92
f 34/93/93 31/94/94 78/95/95 75/96/96
f 30/97/97 27/98/98 83/99/99 79/100/100
f 1/101/101 2/102/4 3/103/45
f 4/3/3 5/104/15 6/105/46
f 7/106/102 8/107/48 9/108/21
f 10/14/14 11/109/22 12/110/47
f 13/83/83 14/111/20 15/112/9
f 16/68/68 17/113/10 18/114/19
f 19/28/28 20/115/17 21/116/82
f 22/65/65 23/117/18 24/118/27
f 25/25/25 26/81/81 27/98/98 28/8/8
f 29/5/5 30/97/97 31/94/94 32/64/64
f 33/61/61 34/93/93 35/90/90 36/60/60
f 37/57/57 38/89/89 39/86/86 40/56/56
f 41/24/24 42/53/53 43/85/85 44/119/103
f 45/23/23 46/13/13 47/50/50 48/54/54
f 49/55/55 50/49/49 51/42/42 52/58/58
f 53/59/59 54/41/41 55/38/38 56/62/62
f 57/63/63 58/37/37 59/34/34 60/6/6
f 61/26/26 62/7/7 63/33/33 64/66/66
f 65/1/1 66/120/104 67/121/88 68/122/32
f 69/29/29 70/123/87 71/124/92 72/125/80
f 73/77/77 74/126/91 75/127/96 76/128/76
f 77/73/73 78/129/95 79/130/100 80/131/72
f 81/12/12 82/132/69 83/133/99 84/134/84
f 85/11/11 86/67/67 87/36/36 88/70/70
f 89/71/71 90/35/35 91/40/40 92/74/74
f 93/75/75 94/39/39 95/44/44 96/78/78
f 97/79/79 98/43/43 99/52/52 100/30/30
f 101/2/2 102/31/31 103/51/51 104/16/16
f 7/106/102 1/101/101 3/103/45 8/107/48
f 2/4/4 4/3/3 6/46/46 3/45/45
f 5/15/15 10/14/14 12/110/47 6/135/46
f 11/22/22 9/21/21 8/136/48 12/137/47
f 44/119/103 7/106/102 9/21/21 41/24/24
f 64/66/66 22/65/65 24/27/27 61/26/26
f 23/18/18 20/17/17 19/138/28 24/139/27
f 13/83/83 21/82/82 20/140/17 14/111/20
f 22/65/65 16/68/68 18/114/19 23/117/18
f 17/10/10 15/9/9 14/20/20 18/19/19
f 84/84/84 13/83/83 15/112/9 81/141/12
f 104/16/16 5/15/15 4/3/3 101/2/2
f 21/82/82 26/81/81 25/25/25 19/28/28
f 27/98/98 30/97/97 29/5/5 28/8/8
f 31/94/94 34/93/93 33/61/61 32/64/64
f 35/90/90 38/89/89 37/57/57 36/60/60
f 39/86/86 43/85/85 42/53/53 40/56/56
f 10/14/14 46/13/13 45/23/23 11/22/22
f 47/50/50 50/49/49 49/55/55 48/54/54
f 51/42/42 54/41/41 53/59/59 52/58/58
f 55/38/38 58/37/37 57/63/63 56/62/62
f 59/34/34 63/33/33 62/7/7 60/6/6
f 1/101/101 66/142/104 65/143/1 2/102/4
f 67/88/88 70/87/87 69/144/29 68/145/32
f 71/92/92 74/91/91 73/146/77 72/147/80
f 75/96/96 78/95/95 77/148/73 76/149/76
f 79/100/100 83/99/99 82/150/69 80/151/72
f 16/68/68 86/67/67 85/11/11 17/10/10
f 87/36/36 90/35/35 89/71/71 88/70/70
f 91/40/40 94/39/39 93/75/75 92/74/74
f 95/44/44 98/43/43 97/79/79 96/78/78
f 99/52/52 103/51/51 102/31/31 100/30/30
f 63/33/33 87/36/36 86/67/67 64/66/66
f 58/37/37 91/40/40 90/35/35 59/34/34
f 54/41/41 95/44/44 94/39/39 55/38/38
f 50/49/49 99/52/52 98/43/43 51/42/42
f 46/13/13 104/16/16 103/51/51 47/50/50
f 43/85/85 67/88/88 66/142/104 44/119/103
f 38/89/89 71/92/92 70/87/87 39/86/86
f 34/93/93 75/96/96 74/91/91 35/90/90
f 30/97/97 79/100/100 78/95/95 31/94/94
f 26/81/81 84/84/84 83/99/99 27/98/98
f 88/70/70 82/69/69 81/12/12 85/11/11
f 92/74/74 77/73/73 80/72/72 89/71/71
f 96/78/78 73/77/77 76/76/76 93/75/75
f 100/30/30 69/29/29 72/80/80 97/79/79
f 101/2/2 65/1/1 68/32/32 102/31/31
f 48/54/54 42/53/53 41/24/24 45/23/23
f 52/58/58 37/57/57 40/56/56 49/55/55
f 56/62/62 33/61/61 36/60/60 53/59/59
f 60/6/6 29/5/5 32/64/64 57/63/63
f 61/26/26 25/25/25 28/8/8 62/7/7
f 7/106/102 44/119/103 66/142/104 1/101/101
