# Blender v2.79 (sub 0) OBJ File: 'villageHouses.blend'
# www.blender.org
mtllib villageHouses_ROOF.mtl
o Cube.006_Cube.007
v 3.948566 1.871992 5.418948
v 3.512961 3.191092 5.418948
v 2.856075 4.540182 5.418948
v 1.781074 5.929060 5.418947
v 0.734357 6.899046 5.418948
v 0.219025 7.222859 5.418949
v 4.159196 0.960994 5.418948
v 3.746824 3.402313 2.696323
v 0.233606 7.265697 2.665244
v 3.046207 4.712345 2.667371
v 4.211428 1.991654 2.817496
v 1.899642 5.970214 2.666042
v 0.783244 6.917964 2.665232
v 4.430301 1.050227 2.834275
v 4.160319 1.968208 4.542652
v 0.776409 7.121445 4.482243
v 4.376195 1.032418 4.549308
v 3.709706 3.369333 4.494578
v 0.231566 7.464196 4.482249
v 3.017751 4.746066 4.483092
v 1.882621 6.128094 4.482564
v 3.948566 1.871992 -5.418948
v 3.512961 3.191092 -5.418948
v 2.856074 4.540182 -5.418948
v 1.781073 5.929060 -5.418947
v 0.734356 6.899046 -5.418948
v 0.219024 7.222859 -5.418949
v 4.159196 0.960994 -5.418948
v 3.746824 3.402313 -2.696324
v 3.746824 3.376473 -0.000000
v 0.233605 7.265697 -2.665244
v 0.233606 6.982925 -0.000000
v 3.046207 4.712345 -2.667371
v 3.046208 4.589461 -0.000000
v 4.211428 1.991674 -0.000000
v 4.211428 1.991654 -2.817497
v 1.899642 5.970214 -2.666042
v 1.899642 5.740936 -0.000000
v 0.783244 6.635646 -0.000000
v 0.783243 6.917964 -2.665232
v 4.430301 1.050227 -0.000000
v 4.430301 1.050227 -2.834275
v 4.160319 1.968208 -4.542652
v 0.776409 7.121445 -4.482243
v 4.376195 1.032418 -4.549308
v 3.709705 3.369333 -4.494578
v 0.231566 7.464196 -4.482249
v 3.017751 4.746066 -4.483092
v 1.882620 6.128094 -4.482564
v 4.312185 3.580447 5.612213
v 4.851604 1.980057 5.626225
v 3.346110 5.176885 5.619426
v 2.258255 6.497091 5.644833
v 0.872618 7.849014 5.670763
v 0.260262 8.230948 5.675646
v 5.001540 0.948709 5.633123
v 4.590079 3.801863 2.691088
v 0.277588 8.116859 2.667157
v 3.572040 5.363874 2.667357
v 5.163956 2.103356 2.817301
v 2.195731 6.546798 2.666902
v 0.930709 7.710983 2.667224
v 5.323685 1.094176 2.834275
v 5.103243 2.079390 4.542574
v 0.922582 8.099448 4.483033
v 5.259393 1.023207 4.549308
v 4.546384 3.767077 4.492501
v 0.275164 8.501985 4.483007
v 3.538241 5.397367 4.483086
v 2.379000 6.713293 4.482905
v 1.947556 6.149114 5.792888
v 0.775624 7.230567 5.805853
v 0.231333 7.557373 5.808296
v 4.245169 1.862062 5.783585
v 3.774881 3.321807 5.776578
v 2.994248 4.794572 5.780185
v 4.388044 0.801668 5.787034
v 4.674382 0.946395 2.834275
v 4.617236 0.874629 4.549308
v 4.312184 3.580447 -5.612213
v 4.851603 1.980057 -5.626225
v 3.346110 5.176885 -5.619426
v 2.258255 6.497091 -5.644833
v 0.872617 7.849014 -5.670763
v 0.260261 8.230948 -5.675646
v 5.001539 0.948709 -5.633123
v 4.590079 3.801863 -2.691088
v 4.506776 3.783242 -0.000000
v 0.277587 8.116859 -2.667157
v 0.277588 7.920183 -0.000000
v 3.572040 5.363874 -2.667357
v 3.488737 5.238998 -0.000000
v 5.163956 2.103356 -0.000000
v 5.163956 2.103356 -2.817302
v 2.399148 6.546798 -2.666902
v 2.232908 6.390846 -0.000000
v 0.930709 7.514306 -0.000000
v 0.930709 7.710983 -2.667224
v 5.332245 0.958816 -0.178142
v 5.323685 0.928186 -2.834275
v 5.103243 2.079390 -4.542574
v 0.922582 8.099448 -4.483033
v 5.259393 1.023207 -4.549308
v 4.546384 3.767077 -4.492501
v 0.275164 8.501985 -4.483007
v 3.538240 5.397367 -4.483086
v 2.379000 6.713293 -4.482905
v 1.947556 6.149114 -5.792888
v 0.775623 7.230567 -5.805853
v 0.231332 7.557373 -5.808296
v 4.245168 1.862062 -5.783585
v 3.774881 3.321807 -5.776578
v 2.994248 4.794572 -5.780185
v 4.388043 0.801668 -5.787034
v 4.674382 0.780404 -2.834275
v 4.682942 0.811034 -0.178142
v 4.617236 0.874629 -4.549308
v 0.754990 7.064806 5.612401
v 3.643921 3.256450 5.597763
v 2.925161 4.667377 5.599566
v 1.864315 6.039087 5.605917
v 0.225179 7.390116 5.613622
v 4.096868 1.867028 5.601266
v 4.273621 0.881331 5.602991
v 4.552341 0.998311 2.834275
v 4.552341 0.915316 -0.000000
v 4.496715 0.953524 4.549308
v 0.749561 7.014010 -5.712103
v 3.617721 3.233036 -5.697465
v 2.904129 4.633818 -5.699269
v 1.850910 5.995666 -5.705620
v 0.223559 7.336980 -5.713325
v 4.067410 1.853603 -5.700969
v 4.242892 0.874994 -5.702694
v 4.552341 0.915316 -2.834275
v 4.496715 0.953524 -4.549308
v 5.323685 0.814263 0.072242
v 4.674382 0.666481 0.072243
v 4.736197 3.800176 -2.447325
v 4.666779 3.784659 -0.204810
v 4.863196 3.421981 -0.275312
v 4.865083 3.597115 -2.435003
v 4.726018 3.399521 -2.485573
v 4.709139 3.287228 -0.247177
v 3.460836 5.523740 4.840097
v 3.372686 5.369439 5.582952
v 3.216009 5.175210 5.691689
v 2.267411 6.710251 5.716613
v 1.973036 6.397101 5.829841
v 2.374394 6.753908 4.999846
v 2.420031 6.925707 4.482927
v 1.918469 6.858851 -0.000000
v 2.192620 7.117320 -4.482947
v 2.054936 6.983074 2.667042
v 2.049439 6.986836 -2.667043
v 2.196706 6.802440 -5.651470
v 1.903121 6.646770 -5.723310
v 1.997116 6.671304 -0.000000
v 2.205699 6.745344 -2.666966
v 2.064918 6.806413 2.666985
v 2.274280 6.872704 -4.482921
v 2.198012 6.627941 -5.647677
v 1.951329 6.461162 -5.743954
v -3.948566 1.871992 5.418948
v -3.512961 3.191092 5.418948
v -2.856074 4.540182 5.418948
v -1.781073 5.929060 5.418947
v -0.734356 6.899046 5.418948
v -0.219024 7.222859 5.418949
v -4.159196 0.960994 5.418948
v -3.746824 3.402313 2.696324
v -0.233605 7.265697 2.665244
v -3.046207 4.712345 2.667371
v -4.211428 1.991654 2.817497
v -1.899642 5.970214 2.666042
v -0.783243 6.917964 2.665232
v 0.000000 7.464196 4.482250
v 0.000000 7.265697 2.665246
v -4.430301 1.050227 2.834275
v 0.000000 7.222859 5.418950
v -4.160319 1.968208 4.542652
v -0.776409 7.121445 4.482243
v -4.376195 1.032418 4.549308
v -3.709705 3.369333 4.494578
v -0.231566 7.464196 4.482249
v -3.017751 4.746066 4.483092
v -1.882620 6.128094 4.482564
v -3.948566 1.871992 -5.418948
v -3.512961 3.191092 -5.418948
v -2.856075 4.540182 -5.418948
v -1.781074 5.929060 -5.418947
v -0.734357 6.899046 -5.418948
v -0.219025 7.222859 -5.418949
v -4.159196 0.960994 -5.418948
v -3.746824 3.402313 -2.696323
v -3.746824 3.376473 0.000000
v -0.233606 7.265697 -2.665244
v -0.233606 6.982925 0.000000
v -3.046207 4.712345 -2.667371
v -3.046208 4.589461 0.000000
v -4.211428 1.991674 0.000000
v -4.211428 1.991654 -2.817496
v -1.899642 5.970214 -2.666042
v -1.899642 5.740936 0.000000
v -0.783244 6.635646 0.000000
v -0.783244 6.917964 -2.665232
v -0.000000 7.464196 -4.482250
v 0.000000 6.982925 0.000000
v -0.000000 7.265697 -2.665246
v -4.430301 1.050227 0.000000
v -4.430301 1.050227 -2.834275
v -0.000000 7.222859 -5.418950
v -4.160319 1.968208 -4.542652
v -0.776409 7.121445 -4.482243
v -4.376195 1.032418 -4.549308
v -3.709706 3.369333 -4.494578
v -0.231566 7.464196 -4.482249
v -3.017751 4.746066 -4.483092
v -1.882621 6.128094 -4.482564
v -4.312184 3.580447 5.612213
v -4.851603 1.980057 5.626225
v -3.346110 5.176885 5.619426
v -2.258255 6.497091 5.644833
v -0.872617 7.849014 5.670763
v -0.260261 8.230948 5.675646
v -5.001539 0.948709 5.633123
v -4.590079 3.801863 2.691088
v -0.277587 8.116859 2.667157
v -3.572040 5.363874 2.667357
v -5.163956 2.103356 2.817302
v -2.195731 6.546798 2.666902
v 0.000000 8.501985 4.483009
v -0.930709 7.710983 2.667224
v 0.000000 8.116859 2.667158
v 0.000000 8.230948 5.675647
v -5.323685 1.094176 2.834275
v -5.103243 2.079390 4.542574
v -0.922582 8.099448 4.483033
v -5.259393 1.023207 4.549308
v -4.546384 3.767077 4.492501
v -0.275164 8.501985 4.483007
v -3.538240 5.397367 4.483086
v -2.379000 6.713293 4.482905
v -1.947556 6.149114 5.792888
v -0.775623 7.230567 5.805853
v -0.231332 7.557373 5.808296
v -4.245168 1.862062 5.783585
v -3.774881 3.321807 5.776578
v -2.994248 4.794572 5.780185
v -4.388043 0.801668 5.787034
v 0.000000 7.557373 5.808297
v -4.674382 0.946395 2.834275
v -4.617236 0.874629 4.549308
v -4.312185 3.580447 -5.612213
v -4.851604 1.980057 -5.626225
v -3.346110 5.176885 -5.619426
v -2.258255 6.497091 -5.644833
v -0.872618 7.849014 -5.670763
v -0.260262 8.230948 -5.675646
v -5.001540 0.948709 -5.633123
v -4.590079 3.801863 -2.691088
v -4.506776 3.783242 0.000000
v -0.277588 8.116859 -2.667157
v -0.277588 7.920183 0.000000
v -3.572040 5.363874 -2.667357
v -3.488737 5.238998 0.000000
v -5.163956 2.103356 0.000000
v -5.163956 2.103356 -2.817301
v -2.399148 6.546798 -2.666902
v -2.232908 6.390846 0.000000
v -0.000000 8.501985 -4.483009
v -0.930709 7.514306 0.000000
v -0.930709 7.710983 -2.667224
v 0.000000 7.920183 0.000000
v -0.000000 8.116859 -2.667158
v -0.000000 8.230948 -5.675647
v -5.332245 0.958816 -0.178142
v -5.323685 0.928186 -2.834275
v -5.103243 2.079390 -4.542574
v -0.922582 8.099448 -4.483033
v -5.259393 1.023207 -4.549308
v -4.546384 3.767077 -4.492501
v -0.275164 8.501985 -4.483007
v -3.538241 5.397367 -4.483086
v -2.379000 6.713293 -4.482905
v -1.947556 6.149114 -5.792888
v -0.775624 7.230567 -5.805853
v -0.231333 7.557373 -5.808296
v -4.245169 1.862062 -5.783585
v -3.774881 3.321807 -5.776578
v -2.994248 4.794572 -5.780185
v -4.388044 0.801668 -5.787034
v -0.000000 7.557373 -5.808297
v -4.674382 0.780404 -2.834275
v -4.682942 0.811034 -0.178142
v -4.617236 0.874629 -4.549308
v -0.754990 7.064806 5.612401
v -3.643921 3.256450 5.597763
v -2.925161 4.667377 5.599566
v -1.864315 6.039087 5.605917
v -0.225178 7.390116 5.613622
v -4.096867 1.867028 5.601266
v -4.273620 0.881331 5.602991
v 0.000000 7.390116 5.613623
v -4.552341 0.998311 2.834275
v -4.552341 0.915316 0.000000
v -4.496715 0.953524 4.549308
v -0.749562 7.014010 -5.712103
v -3.617721 3.233036 -5.697465
v -2.904129 4.633818 -5.699269
v -1.850911 5.995666 -5.705620
v -0.223560 7.336980 -5.713325
v -4.067411 1.853603 -5.700969
v -4.242893 0.874994 -5.702694
v -0.000000 7.336980 -5.713326
v -4.552341 0.915316 -2.834275
v -4.496715 0.953524 -4.549308
v -5.323685 0.814263 0.072243
v -4.674382 0.666481 0.072243
v -4.736197 3.800176 -2.447324
v -4.666779 3.784659 -0.204810
v -4.863196 3.421981 -0.275311
v -4.865083 3.597115 -2.435002
v -4.726018 3.399521 -2.485573
v -4.709139 3.287228 -0.247177
v -3.460835 5.523740 4.840097
v -3.372685 5.369439 5.582952
v -3.216008 5.175210 5.691689
v -2.267410 6.710251 5.716613
v -1.973035 6.397101 5.829841
v -2.374393 6.753908 4.999846
v -2.420031 6.925707 4.482927
v -1.918469 6.858851 0.000000
v -2.192620 7.117320 -4.482947
v -2.054936 6.983074 2.667042
v -2.049439 6.986836 -2.667043
v -2.196706 6.802440 -5.651470
v -1.903121 6.646770 -5.723310
v -1.997116 6.671304 0.000000
v -2.205699 6.745344 -2.666966
v -2.064918 6.806413 2.666985
v -2.274280 6.872704 -4.482921
v -2.198012 6.627941 -5.647677
v -1.951330 6.461162 -5.743954
v -4.211423 1.989490 -3.784760
v 4.211428 1.989490 -3.784760
v -3.746820 3.403527 -3.784760
v 3.746824 3.403527 -3.784760
v -3.046204 4.842428 -3.784759
v 3.046208 4.842428 -3.784760
v -1.899638 6.364785 -3.784760
v 1.899642 6.364785 -3.784760
v -0.783240 7.436727 -3.784760
v 0.783244 7.436727 -3.784760
v -0.233602 7.781584 -3.784760
v 0.233606 7.781584 -3.784760
v -4.211423 1.989490 -4.231228
v 4.211428 1.989490 -4.231228
v -3.746820 3.403527 -4.231228
v 3.746824 3.403527 -4.231228
v -3.046204 4.842428 -4.231228
v 3.046208 4.842428 -4.231228
v -1.899638 6.364785 -4.231228
v 1.899642 6.364785 -4.231228
v -0.783240 7.436727 -4.231228
v 0.783244 7.436727 -4.231228
v -0.233602 7.781584 -4.231228
v 0.233606 7.781584 -4.231228
v 0.335990 7.550513 -4.313925
v -0.335990 7.550513 -4.313925
v 0.335990 7.550513 -3.497015
v -0.335990 7.550513 -3.497015
v 0.335990 1.530354 -4.313925
v -0.335990 1.530354 -4.313925
v 0.335990 1.530354 -3.497015
v -0.335990 1.530354 -3.497015
v 0.335990 2.533714 -3.497015
v 0.323720 3.537074 -3.511932
v 0.316082 4.540434 -3.521217
v 0.326309 5.543794 -3.508784
v 0.301510 6.547153 -3.538932
v -0.301510 6.547153 -3.538932
v -0.326309 5.543794 -3.508784
v -0.316082 4.540434 -3.521217
v -0.323720 3.537074 -3.511932
v -0.335990 2.533714 -3.497015
v 0.301510 6.547153 -4.272008
v 0.326309 5.543794 -4.302156
v 0.316082 4.540434 -4.289723
v 0.323720 3.537074 -4.299008
v 0.335990 2.533714 -4.313925
v -0.335990 2.533714 -4.313925
v -0.323720 3.537074 -4.299008
v -0.316082 4.540434 -4.289723
v -0.326309 5.543794 -4.302156
v -0.301510 6.547153 -4.272008
v -4.158015 2.241395 -4.408455
v -4.158015 1.424485 -4.408455
v -4.158015 2.241395 -3.591545
v -4.158015 1.424485 -3.591545
v 4.158015 2.241395 -4.408455
v 4.158015 1.424485 -4.408455
v 4.158015 2.241395 -3.591545
v 4.158015 1.424485 -3.591545
v 2.772010 2.241395 -3.591545
v 1.386005 2.226478 -3.606462
v 0.000000 2.217193 -3.615746
v -1.386005 2.229626 -3.603314
v -2.772010 2.199478 -3.633462
v -2.772010 1.466402 -3.633462
v -1.386005 1.436254 -3.603314
v 0.000000 1.448687 -3.615746
v 1.386005 1.439402 -3.606462
v 2.772010 1.424485 -3.591545
v -2.772010 2.199478 -4.366538
v -1.386005 2.229626 -4.396686
v 0.000000 2.217193 -4.384253
v 1.386005 2.226478 -4.393538
v 2.772010 2.241395 -4.408455
v 2.772010 1.424485 -4.408455
v 1.386005 1.439402 -4.393538
v 0.000000 1.448687 -4.384253
v -1.386005 1.436254 -4.396686
v -2.772010 1.466402 -4.366538
v -4.211423 1.989490 4.215240
v 4.211427 1.989490 4.215240
v -3.746819 3.403527 4.215240
v 3.746824 3.403527 4.215240
v -3.046204 4.842428 4.215240
v 3.046207 4.842428 4.215240
v -1.899638 6.364785 4.215240
v 1.899642 6.364785 4.215240
v -0.783240 7.436726 4.215240
v 0.783244 7.436726 4.215240
v -0.233602 7.781583 4.215240
v 0.233606 7.781583 4.215240
v -4.211423 1.989490 3.768772
v 4.211427 1.989490 3.768772
v -3.746819 3.403527 3.768772
v 3.746824 3.403527 3.768772
v -3.046204 4.842428 3.768772
v 3.046207 4.842428 3.768772
v -1.899638 6.364785 3.768772
v 1.899642 6.364785 3.768772
v -0.783239 7.436726 3.768772
v 0.783244 7.436726 3.768772
v -0.233602 7.781583 3.768772
v 0.233606 7.781583 3.768772
v 0.335990 7.550513 3.497016
v -0.335990 7.550513 3.497016
v 0.335990 7.550513 4.313926
v -0.335990 7.550513 4.313926
v 0.335990 1.530354 3.497016
v -0.335990 1.530354 3.497016
v 0.335990 1.530354 4.313926
v -0.335990 1.530354 4.313926
v 0.335990 2.533714 4.313926
v 0.323720 3.537074 4.299009
v 0.316082 4.540433 4.289724
v 0.326309 5.543794 4.302156
v 0.301510 6.547153 4.272009
v -0.301510 6.547153 4.272009
v -0.326309 5.543794 4.302156
v -0.316082 4.540434 4.289724
v -0.323720 3.537074 4.299009
v -0.335990 2.533714 4.313926
v 0.301510 6.547153 3.538933
v 0.326309 5.543794 3.508785
v 0.316082 4.540433 3.521217
v 0.323720 3.537074 3.511934
v 0.335990 2.533714 3.497016
v -0.335990 2.533714 3.497016
v -0.323720 3.537074 3.511934
v -0.316082 4.540434 3.521217
v -0.326309 5.543794 3.508785
v -0.301510 6.547153 3.538933
v -4.158015 2.241395 3.591546
v -4.158015 1.424485 3.591546
v -4.158015 2.241395 4.408455
v -4.158015 1.424485 4.408455
v 4.158015 2.241395 3.591545
v 4.158015 1.424485 3.591545
v 4.158015 2.241395 4.408455
v 4.158015 1.424485 4.408455
v 2.772010 2.241395 4.408455
v 1.386005 2.226478 4.393538
v 0.000000 2.217193 4.384254
v -1.386005 2.229626 4.396686
v -2.772010 2.199478 4.366538
v -2.772010 1.466403 4.366538
v -1.386005 1.436254 4.396686
v 0.000000 1.448687 4.384254
v 1.386005 1.439402 4.393538
v 2.772010 1.424485 4.408455
v -2.772010 2.199478 3.633462
v -1.386005 2.229626 3.603314
v 0.000000 2.217193 3.615746
v 1.386005 2.226478 3.606462
v 2.772010 2.241395 3.591545
v 2.772010 1.424485 3.591545
v 1.386005 1.439402 3.606462
v 0.000000 1.448687 3.615746
v -1.386005 1.436254 3.603314
v -2.772010 1.466403 3.633462
v -0.558875 9.292435 7.645062
v -0.601874 9.251601 7.629488
v -0.559952 9.244155 7.672540
v -0.601846 7.135736 6.854525
v -0.558887 7.093202 6.841173
v -0.559952 7.131992 6.898932
v 0.558876 9.292435 7.645062
v 0.559952 9.244155 7.672540
v 0.601874 9.251601 7.629488
v 0.558888 7.093202 6.841173
v 0.601847 7.135736 6.854525
v 0.559952 7.131992 6.898932
v -0.559952 9.293258 -7.645196
v -0.559952 9.244287 -7.672541
v -0.602952 9.252520 -7.629764
v -0.559952 7.091941 -6.841145
v -0.602952 7.134820 -6.854201
v -0.559952 7.131916 -6.898931
v 0.602952 9.252520 -7.629764
v 0.559952 9.244287 -7.672541
v 0.559952 9.293258 -7.645196
v 0.559952 7.091941 -6.841145
v 0.559952 7.131916 -6.898931
v 0.602952 7.134820 -6.854201
v 0.602952 9.736444 -5.257292
v 0.559952 9.777645 -5.270449
v 0.559648 9.776970 -5.186327
v 0.602600 9.728024 -5.164076
v 0.581242 9.078374 -2.221102
v 0.538234 9.122186 -2.220093
v 0.537662 9.107860 -2.135402
v 0.580661 9.064525 -2.135105
v 0.567497 8.816769 -0.439879
v 0.524494 8.860034 -0.436835
v 0.524584 8.860101 0.436757
v 0.567588 8.816829 0.439876
v 0.585217 9.067937 2.135105
v 0.542218 9.111281 2.135410
v 0.541960 9.125076 2.220221
v 0.584952 9.081356 2.221099
v 0.542149 9.695209 5.256997
v 0.541788 9.687048 5.163381
v 0.498685 9.735646 5.186199
v 0.499125 9.736413 5.270585
v 0.542173 7.225784 4.415536
v 0.499114 7.183360 4.399178
v 0.498927 7.176346 4.314075
v 0.542072 7.222147 4.323468
v 0.584701 6.793009 2.221095
v 0.541709 6.748947 2.220235
v 0.542217 6.735700 2.135356
v 0.585217 6.778926 2.135105
v 0.567588 6.551503 0.439876
v 0.524585 6.508223 0.437315
v 0.524494 6.508291 -0.437235
v 0.567497 6.551580 -0.439879
v 0.580661 6.782388 -2.135105
v 0.537662 6.739156 -2.135363
v 0.538358 6.751098 -2.220492
v 0.581366 6.794822 -2.221102
v 0.602952 7.157661 -4.415301
v 0.602468 7.153238 -4.323392
v 0.559521 7.107986 -4.313819
v 0.559952 7.114810 -4.399206
v -0.542149 9.695209 5.256997
v -0.499125 9.736413 5.270585
v -0.498685 9.735645 5.186199
v -0.541787 9.687048 5.163381
v -0.584951 9.081356 2.221099
v -0.541960 9.125076 2.220221
v -0.542217 9.111281 2.135410
v -0.585216 9.067937 2.135105
v -0.567588 8.816829 0.439877
v -0.524584 8.860101 0.436758
v -0.524494 8.860034 -0.436835
v -0.567497 8.816769 -0.439878
v -0.580661 9.064525 -2.135105
v -0.537663 9.107860 -2.135402
v -0.538234 9.122186 -2.220093
v -0.581243 9.078374 -2.221102
v -0.602952 9.736444 -5.257292
v -0.602600 9.728024 -5.164076
v -0.559648 9.776970 -5.186327
v -0.559952 9.777645 -5.270449
v -0.602952 7.157661 -4.415301
v -0.559952 7.114810 -4.399206
v -0.559522 7.107986 -4.313819
v -0.602468 7.153238 -4.323392
v -0.581367 6.794822 -2.221102
v -0.538358 6.751098 -2.220492
v -0.537662 6.739156 -2.135363
v -0.580661 6.782388 -2.135105
v -0.567497 6.551580 -0.439879
v -0.524494 6.508291 -0.437235
v -0.524585 6.508223 0.437316
v -0.567588 6.551503 0.439877
v -0.585216 6.778926 2.135105
v -0.542217 6.735700 2.135356
v -0.541709 6.748947 2.220235
v -0.584700 6.793009 2.221095
v -0.542172 7.225784 4.415536
v -0.542072 7.222147 4.323468
v -0.498927 7.176346 4.314075
v -0.499114 7.183360 4.399178
vt 0.575463 0.946509
vt 0.753121 1.001660
vt 0.753121 1.001660
vt 0.575463 0.946509
vt 0.025409 0.529475
vt 0.068736 0.594719
vt 0.068736 0.594719
vt 0.025409 0.529475
vt 0.394681 0.140147
vt 0.203414 0.276249
vt 0.203414 0.276249
vt 0.394681 0.140147
vt 0.753121 0.001831
vt 0.575463 0.056981
vt 0.394681 0.863343
vt 0.394681 0.863343
vt 0.025409 0.474015
vt 0.025409 0.474015
vt 0.203413 0.727240
vt 0.203413 0.727240
vt 0.753121 0.001831
vt 0.068736 0.408770
vt 0.068736 0.408770
vt 0.575463 0.056981
vt 0.575463 0.946509
vt 0.753121 1.001660
vt 0.753121 1.001660
vt 0.575463 0.946509
vt 0.025409 0.529475
vt 0.068736 0.594719
vt 0.068736 0.594719
vt 0.025409 0.529475
vt 0.394681 0.140147
vt 0.203414 0.276249
vt 0.203414 0.276249
vt 0.394681 0.140147
vt 0.753121 0.001831
vt 0.575463 0.056981
vt 0.394681 0.863343
vt 0.394681 0.863343
vt 0.025409 0.474015
vt 0.025409 0.474015
vt 0.203413 0.727240
vt 0.203413 0.727240
vt 0.753121 0.001831
vt 0.068736 0.408770
vt 0.068736 0.408770
vt 0.575463 0.056981
vt 0.090530 0.865596
vt 0.249662 0.865596
vt 0.249662 0.984616
vt 0.090530 0.984616
vt 0.500000 0.865596
vt 0.500000 0.984616
vt 0.090530 0.118629
vt 0.249662 0.118629
vt 0.249662 0.295149
vt 0.090530 0.295149
vt 0.500000 0.118629
vt 0.500000 0.295149
vt 0.249662 0.502617
vt 0.090530 0.502617
vt 0.500000 0.502617
vt 0.090530 0.013658
vt 0.249662 0.013658
vt 0.249662 0.041211
vt 0.090530 0.041211
vt 0.500000 0.013658
vt 0.500000 0.041211
vt 0.249662 0.687787
vt 0.090530 0.687787
vt 0.500000 0.687787
vt 0.004091 0.687787
vt 0.004091 0.865596
vt 0.004091 0.041211
vt 0.004091 0.118629
vt 0.004091 0.502617
vt 0.004091 0.013658
vt 0.004091 0.295149
vt 0.004091 0.984616
vt 0.909470 0.865596
vt 0.909470 0.984616
vt 0.750338 0.984616
vt 0.750338 0.865596
vt 0.909470 0.118629
vt 0.909470 0.295149
vt 0.750338 0.295149
vt 0.750338 0.118629
vt 0.909470 0.502617
vt 0.750338 0.502617
vt 0.909470 0.013658
vt 0.909470 0.041211
vt 0.750338 0.041211
vt 0.750338 0.013658
vt 0.909470 0.687787
vt 0.750338 0.687787
vt 0.995909 0.687787
vt 0.995909 0.865596
vt 0.995909 0.041211
vt 0.995909 0.118629
vt 0.995909 0.502617
vt 0.995909 0.013658
vt 0.995909 0.295149
vt 0.995909 0.984616
vt 0.090530 0.865596
vt 0.090530 0.984616
vt 0.249662 0.984616
vt 0.249662 0.865596
vt 0.500000 0.984616
vt 0.500000 0.865596
vt 0.090530 0.118629
vt 0.090530 0.295149
vt 0.249662 0.295149
vt 0.249662 0.118629
vt 0.500000 0.295149
vt 0.500000 0.118629
vt 0.090530 0.502617
vt 0.249662 0.502617
vt 0.500000 0.502617
vt 0.090530 0.041211
vt 0.249662 0.041211
vt 0.500000 0.041211
vt 0.090530 0.687787
vt 0.249662 0.687787
vt 0.500000 0.687787
vt 0.004091 0.687787
vt 0.004091 0.865596
vt 0.004091 0.041211
vt 0.004091 0.118629
vt 0.004091 0.502617
vt 0.004091 0.295149
vt 0.004091 0.984616
vt 0.909470 0.865596
vt 0.750338 0.865596
vt 0.750338 0.984616
vt 0.909470 0.984616
vt 0.909470 0.118629
vt 0.750338 0.118629
vt 0.750338 0.295149
vt 0.909470 0.295149
vt 0.750338 0.502617
vt 0.909470 0.502617
vt 0.750338 0.041211
vt 0.909470 0.041211
vt 0.750338 0.687787
vt 0.909470 0.687787
vt 0.995909 0.687787
vt 0.995909 0.865596
vt 0.995909 0.041211
vt 0.995909 0.118629
vt 0.995909 0.502617
vt 0.995909 0.295149
vt 0.995909 0.984616
vt 0.424995 0.915135
vt 0.433749 0.843441
vt 0.438033 0.862410
vt 0.414076 0.952722
vt 0.419626 0.943723
vt 0.433651 0.952247
vt 0.428880 0.961686
vt 0.450536 0.691520
vt 0.460815 0.627564
vt 0.473654 0.628405
vt 0.463844 0.694589
vt 0.451701 0.625725
vt 0.442588 0.623885
vt 0.465721 0.589164
vt 0.469763 0.595195
vt 0.437791 0.924861
vt 0.442641 0.766355
vt 0.454923 0.774459
vt 0.449497 0.782940
vt 0.512080 0.631478
vt 0.479948 0.603470
vt 0.508822 0.592056
vt 0.694312 0.628186
vt 0.577982 0.627896
vt 0.574860 0.580982
vt 0.695644 0.574350
vt 0.503530 0.580553
vt 0.573057 0.567377
vt 0.695707 0.560903
vt 0.486531 0.936924
vt 0.494626 0.871295
vt 0.571496 0.892795
vt 0.568039 0.937238
vt 0.691783 0.898803
vt 0.691574 0.937776
vt 0.496321 0.857557
vt 0.503343 0.783262
vt 0.578786 0.786520
vt 0.574147 0.858712
vt 0.692460 0.787444
vt 0.692016 0.855388
vt 0.479361 0.978837
vt 0.481622 0.967180
vt 0.564909 0.970818
vt 0.564547 0.983345
vt 0.691404 0.972145
vt 0.691344 0.984567
vt 0.509835 0.702793
vt 0.581801 0.706100
vt 0.693202 0.708766
vt 0.446949 0.847868
vt 0.453064 0.791569
vt 0.484759 0.797762
vt 0.445468 0.860319
vt 0.473673 0.869969
vt 0.473804 0.601227
vt 0.500879 0.575223
vt 0.572163 0.561548
vt 0.695541 0.552612
vt 0.423858 0.840679
vt 0.433488 0.761765
vt 0.440921 0.689414
vt 0.409445 0.937539
vt 0.415006 0.909298
vt 0.403965 0.946293
vt 0.958044 0.917578
vt 0.945640 0.869324
vt 0.946882 0.862394
vt 0.949824 0.845969
vt 0.968672 0.955189
vt 0.953820 0.964033
vt 0.949126 0.954569
vt 0.963196 0.946162
vt 0.933907 0.694573
vt 0.920676 0.697579
vt 0.911060 0.631820
vt 0.923800 0.631027
vt 0.932837 0.629232
vt 0.915037 0.598971
vt 0.919090 0.593063
vt 0.941873 0.627437
vt 0.945200 0.927193
vt 0.941435 0.769080
vt 0.929162 0.777084
vt 0.936629 0.850294
vt 0.873266 0.634895
vt 0.875649 0.594903
vt 0.904877 0.607014
vt 0.695644 0.574350
vt 0.812285 0.580796
vt 0.807991 0.632269
vt 0.881353 0.583454
vt 0.814303 0.567940
vt 0.695707 0.560903
vt 0.896442 0.938856
vt 0.815045 0.938471
vt 0.812037 0.894387
vt 0.890324 0.885686
vt 0.887321 0.859588
vt 0.809695 0.860061
vt 0.805802 0.788140
vt 0.880921 0.785531
vt 0.903264 0.980775
vt 0.818114 0.984567
vt 0.817864 0.972046
vt 0.901099 0.969112
vt 0.803593 0.708512
vt 0.875099 0.705575
vt 0.793594 0.708535
vt 0.793045 0.699214
vt 0.795022 0.690359
vt 0.938823 0.869977
vt 0.910985 0.604878
vt 0.884328 0.578325
vt 0.815808 0.560022
vt 0.959708 0.843277
vt 0.950576 0.764553
vt 0.943467 0.692504
vt 0.973406 0.940061
vt 0.968058 0.911823
vt 0.978815 0.948843
vt 0.978071 0.906067
vt 0.969592 0.840586
vt 0.988958 0.942496
vt 0.983616 0.933960
vt 0.953028 0.690435
vt 0.959716 0.760026
vt 0.887303 0.573196
vt 0.817313 0.552105
vt 0.695374 0.544321
vt 0.405017 0.903461
vt 0.413967 0.837916
vt 0.393855 0.939865
vt 0.399265 0.931356
vt 0.431306 0.687309
vt 0.424335 0.757175
vt 0.498227 0.569894
vt 0.571269 0.555718
vt 0.406654 0.858812
vt 0.392700 0.892796
vt 0.383791 0.852181
vt 0.389868 0.848198
vt 0.363724 0.863926
vt 0.375850 0.848198
vt 0.701604 0.708747
vt 0.704677 0.691446
vt 0.703618 0.684982
vt 0.572569 0.878994
vt 0.810752 0.875549
vt 0.888506 0.869885
vt 0.691876 0.881405
vt 0.937569 0.858729
vt 0.424995 0.915135
vt 0.438033 0.862410
vt 0.433749 0.843441
vt 0.433651 0.952247
vt 0.419626 0.943723
vt 0.450536 0.691520
vt 0.463844 0.694589
vt 0.473654 0.628405
vt 0.460815 0.627564
vt 0.451701 0.625725
vt 0.469763 0.595195
vt 0.465721 0.589164
vt 0.442588 0.623885
vt 0.437791 0.924861
vt 0.442641 0.766355
vt 0.454923 0.774459
vt 0.449497 0.782940
vt 0.512080 0.631478
vt 0.508822 0.592056
vt 0.479948 0.603470
vt 0.694312 0.628186
vt 0.695644 0.574350
vt 0.574860 0.580982
vt 0.577982 0.627896
vt 0.503530 0.580553
vt 0.573057 0.567377
vt 0.695707 0.560903
vt 0.486531 0.936924
vt 0.568039 0.937238
vt 0.571496 0.892795
vt 0.494626 0.871295
vt 0.691574 0.937776
vt 0.691783 0.898803
vt 0.496321 0.857557
vt 0.574147 0.858712
vt 0.578786 0.786520
vt 0.503343 0.783262
vt 0.692016 0.855388
vt 0.692460 0.787444
vt 0.564909 0.970818
vt 0.481622 0.967180
vt 0.691404 0.972145
vt 0.581801 0.706100
vt 0.509835 0.702793
vt 0.693202 0.708766
vt 0.446949 0.847868
vt 0.484759 0.797762
vt 0.453064 0.791569
vt 0.473673 0.869969
vt 0.445468 0.860319
vt 0.473804 0.601227
vt 0.500879 0.575223
vt 0.572163 0.561548
vt 0.695541 0.552612
vt 0.423858 0.840679
vt 0.433488 0.761765
vt 0.440921 0.689414
vt 0.409445 0.937539
vt 0.415006 0.909298
vt 0.958044 0.917578
vt 0.949824 0.845969
vt 0.946882 0.862394
vt 0.945640 0.869324
vt 0.963196 0.946162
vt 0.949126 0.954569
vt 0.933907 0.694573
vt 0.923800 0.631027
vt 0.911060 0.631820
vt 0.920676 0.697579
vt 0.932837 0.629232
vt 0.941873 0.627437
vt 0.919090 0.593063
vt 0.915037 0.598971
vt 0.945200 0.927193
vt 0.941435 0.769080
vt 0.929162 0.777084
vt 0.936629 0.850294
vt 0.873266 0.634895
vt 0.904877 0.607014
vt 0.875649 0.594903
vt 0.807991 0.632269
vt 0.812285 0.580796
vt 0.695644 0.574350
vt 0.881353 0.583454
vt 0.814303 0.567940
vt 0.695707 0.560903
vt 0.896442 0.938856
vt 0.890324 0.885686
vt 0.812037 0.894387
vt 0.815045 0.938471
vt 0.887321 0.859588
vt 0.880921 0.785531
vt 0.805802 0.788140
vt 0.809695 0.860061
vt 0.901099 0.969112
vt 0.817864 0.972046
vt 0.875099 0.705575
vt 0.803593 0.708512
vt 0.793594 0.708535
vt 0.795022 0.690359
vt 0.793045 0.699214
vt 0.938823 0.869977
vt 0.910985 0.604878
vt 0.884328 0.578325
vt 0.815808 0.560022
vt 0.959708 0.843277
vt 0.950576 0.764553
vt 0.943467 0.692504
vt 0.973406 0.940061
vt 0.968058 0.911823
vt 0.978071 0.906067
vt 0.969592 0.840586
vt 0.983616 0.933960
vt 0.953028 0.690435
vt 0.959716 0.760026
vt 0.887303 0.573196
vt 0.817313 0.552105
vt 0.695374 0.544321
vt 0.405017 0.903461
vt 0.413967 0.837916
vt 0.399265 0.931356
vt 0.431306 0.687309
vt 0.424335 0.757175
vt 0.498227 0.569894
vt 0.571269 0.555718
vt 0.406654 0.858812
vt 0.389868 0.848198
vt 0.383791 0.852181
vt 0.392700 0.892796
vt 0.363724 0.863926
vt 0.375850 0.848198
vt 0.701604 0.708747
vt 0.704677 0.691446
vt 0.703618 0.684982
vt 0.572569 0.878994
vt 0.888506 0.869885
vt 0.810752 0.875549
vt 0.691876 0.881405
vt 0.937569 0.858729
vt 0.399920 0.010114
vt 0.398232 0.048011
vt 0.360334 0.046323
vt 0.362023 0.008425
vt 0.859549 0.123523
vt 0.859693 0.085602
vt 0.951034 0.085524
vt 0.951016 0.123727
vt 0.988916 0.008994
vt 0.989097 0.047140
vt 0.950951 0.047321
vt 0.950770 0.009175
vt 0.491708 0.015715
vt 0.491473 0.050553
vt 0.950900 0.161873
vt 0.859215 0.161592
vt 0.491154 0.085916
vt 0.397759 0.085995
vt 0.859485 0.047680
vt 0.768058 0.085680
vt 0.767874 0.048767
vt 0.675508 0.085759
vt 0.675505 0.049491
vt 0.584185 0.085836
vt 0.583938 0.049371
vt 0.398296 0.123978
vt 0.491533 0.121278
vt 0.491828 0.156115
vt 0.400049 0.161873
vt 0.584000 0.122302
vt 0.583809 0.159182
vt 0.675567 0.122026
vt 0.675474 0.158072
vt 0.767937 0.122593
vt 0.767426 0.159491
vt 0.859086 0.009612
vt 0.767300 0.011870
vt 0.675350 0.013445
vt 0.583684 0.012491
vt 0.399920 0.010114
vt 0.398232 0.048011
vt 0.360334 0.046323
vt 0.362023 0.008425
vt 0.859549 0.123523
vt 0.859693 0.085602
vt 0.951034 0.085524
vt 0.951016 0.123727
vt 0.988916 0.008994
vt 0.989097 0.047140
vt 0.950951 0.047321
vt 0.950770 0.009175
vt 0.491708 0.015715
vt 0.491473 0.050553
vt 0.950900 0.161873
vt 0.859215 0.161592
vt 0.491154 0.085916
vt 0.397759 0.085995
vt 0.859485 0.047680
vt 0.768058 0.085680
vt 0.767874 0.048767
vt 0.675508 0.085759
vt 0.675505 0.049491
vt 0.584185 0.085836
vt 0.583938 0.049371
vt 0.398296 0.123978
vt 0.491533 0.121278
vt 0.491828 0.156115
vt 0.400049 0.161873
vt 0.584000 0.122302
vt 0.583809 0.159182
vt 0.675567 0.122026
vt 0.675474 0.158072
vt 0.767937 0.122593
vt 0.767426 0.159491
vt 0.859086 0.009612
vt 0.767300 0.011870
vt 0.675350 0.013445
vt 0.583684 0.012491
vt 0.399920 0.010114
vt 0.398232 0.048011
vt 0.360334 0.046323
vt 0.362023 0.008425
vt 0.859549 0.123523
vt 0.859693 0.085602
vt 0.951034 0.085524
vt 0.951016 0.123727
vt 0.988916 0.008994
vt 0.989097 0.047140
vt 0.950951 0.047321
vt 0.950770 0.009175
vt 0.491708 0.015715
vt 0.491473 0.050553
vt 0.950900 0.161873
vt 0.859215 0.161592
vt 0.491154 0.085916
vt 0.397759 0.085995
vt 0.859485 0.047680
vt 0.768058 0.085680
vt 0.767874 0.048767
vt 0.675508 0.085759
vt 0.675505 0.049491
vt 0.584185 0.085836
vt 0.583938 0.049371
vt 0.398296 0.123978
vt 0.491533 0.121278
vt 0.491828 0.156115
vt 0.400049 0.161873
vt 0.584000 0.122302
vt 0.583809 0.159182
vt 0.675567 0.122026
vt 0.675474 0.158072
vt 0.767937 0.122593
vt 0.767426 0.159491
vt 0.859086 0.009612
vt 0.767300 0.011870
vt 0.675350 0.013445
vt 0.583684 0.012491
vt 0.399920 0.010114
vt 0.398232 0.048011
vt 0.360334 0.046323
vt 0.362023 0.008425
vt 0.859549 0.123523
vt 0.859693 0.085602
vt 0.951034 0.085524
vt 0.951016 0.123727
vt 0.988916 0.008994
vt 0.989097 0.047140
vt 0.950951 0.047321
vt 0.950770 0.009175
vt 0.491708 0.015715
vt 0.491473 0.050553
vt 0.950900 0.161873
vt 0.859215 0.161592
vt 0.491154 0.085916
vt 0.397759 0.085995
vt 0.859485 0.047680
vt 0.768058 0.085680
vt 0.767874 0.048767
vt 0.675508 0.085759
vt 0.675505 0.049491
vt 0.584185 0.085836
vt 0.583938 0.049371
vt 0.398296 0.123978
vt 0.491533 0.121278
vt 0.491828 0.156115
vt 0.400049 0.161873
vt 0.584000 0.122302
vt 0.583809 0.159182
vt 0.675567 0.122026
vt 0.675474 0.158072
vt 0.767937 0.122593
vt 0.767426 0.159491
vt 0.859086 0.009612
vt 0.767300 0.011870
vt 0.675350 0.013445
vt 0.583684 0.012491
vt 0.151095 0.893354
vt 0.222717 0.867276
vt 0.222088 0.939157
vt 0.162511 0.960011
vt 0.321536 0.683414
vt 0.259174 0.689156
vt 0.260471 0.630006
vt 0.327535 0.604183
vt 0.166902 0.533796
vt 0.225052 0.557460
vt 0.223304 0.626859
vt 0.151130 0.599319
vt 0.255299 0.867746
vt 0.255498 0.938934
vt 0.224495 0.938795
vt 0.225230 0.866814
vt 0.179363 0.502633
vt 0.237353 0.526220
vt 0.225610 0.555089
vt 0.167621 0.531502
vt 0.317952 0.959037
vt 0.257895 0.939300
vt 0.257751 0.868287
vt 0.325349 0.894956
vt 0.327661 0.601669
vt 0.260432 0.627438
vt 0.260857 0.558020
vt 0.320902 0.539172
vt 0.163615 0.808598
vt 0.224753 0.803661
vt 0.222693 0.864614
vt 0.151269 0.890712
vt 0.258041 0.630319
vt 0.256816 0.689279
vt 0.227870 0.689478
vt 0.225746 0.629823
vt 0.256781 0.691580
vt 0.255399 0.745618
vt 0.229227 0.745875
vt 0.227921 0.691787
vt 0.255383 0.747817
vt 0.255886 0.801521
vt 0.227160 0.801248
vt 0.229210 0.748068
vt 0.163093 0.962365
vt 0.222542 0.941587
vt 0.232886 0.971185
vt 0.173438 0.991963
vt 0.255863 0.803849
vt 0.255313 0.865258
vt 0.225274 0.864325
vt 0.227104 0.803563
vt 0.325245 0.892372
vt 0.257848 0.865643
vt 0.258220 0.804022
vt 0.320158 0.811589
vt 0.320101 0.809170
vt 0.258190 0.801640
vt 0.257641 0.747851
vt 0.319382 0.748773
vt 0.319407 0.746339
vt 0.257661 0.745597
vt 0.259107 0.691495
vt 0.321428 0.685809
vt 0.258472 0.558335
vt 0.258069 0.627898
vt 0.225737 0.627393
vt 0.227434 0.557889
vt 0.151230 0.601934
vt 0.223256 0.629462
vt 0.225511 0.689378
vt 0.163672 0.684649
vt 0.163883 0.687051
vt 0.225612 0.691731
vt 0.227001 0.745860
vt 0.167323 0.745559
vt 0.167319 0.747922
vt 0.226988 0.748093
vt 0.224878 0.801306
vt 0.163819 0.806205
vt 0.329879 0.601236
vt 0.323187 0.538681
vt 0.352959 0.535821
vt 0.359200 0.600206
vt 0.327693 0.893076
vt 0.322541 0.811667
vt 0.352315 0.810950
vt 0.354327 0.893179
vt 0.322460 0.809281
vt 0.321778 0.748830
vt 0.351575 0.749526
vt 0.352266 0.808574
vt 0.321810 0.746370
vt 0.323835 0.685772
vt 0.354477 0.687425
vt 0.351615 0.747093
vt 0.323953 0.683399
vt 0.329920 0.603492
vt 0.359238 0.602501
vt 0.354609 0.685044
vt 0.351941 0.961832
vt 0.353159 0.961698
vt 0.351894 0.963005
vt 0.223293 0.938755
vt 0.222144 0.940451
vt 0.320318 0.959527
vt 0.320193 0.960677
vt 0.319131 0.959240
vt 0.256701 0.939286
vt 0.255511 0.940190
vt 0.352846 0.534686
vt 0.354118 0.535904
vt 0.226246 0.557512
vt 0.227459 0.556665
vt 0.320781 0.538032
vt 0.322046 0.538783
vt 0.258484 0.557111
vt 0.259671 0.557992
vt 0.327641 0.895385
vt 0.149902 0.893735
vt 0.150302 0.892360
vt 0.151768 0.891826
vt 0.162413 0.808675
vt 0.162731 0.807472
vt 0.163887 0.807378
vt 0.166176 0.747920
vt 0.166247 0.746739
vt 0.167253 0.746743
vt 0.162716 0.686974
vt 0.162645 0.685771
vt 0.163579 0.685843
vt 0.151703 0.600820
vt 0.150282 0.600277
vt 0.149981 0.598892
vt 0.224473 0.940059
vt 0.317829 0.960212
vt 0.257849 0.940571
vt 0.179994 0.501598
vt 0.238130 0.525244
vt 0.323070 0.537564
vt 0.360339 0.600283
vt 0.354309 0.895516
vt 0.355471 0.895372
vt 0.353488 0.810708
vt 0.355458 0.892308
vt 0.352790 0.749412
vt 0.353450 0.808399
vt 0.355695 0.687640
vt 0.352830 0.747263
vt 0.360325 0.603350
vt 0.355812 0.685330
vn 0.9500 0.3121 0.0000
vn 0.5315 0.8471 0.0000
vn -0.7988 0.6016 0.0000
vn 0.0000 0.0000 1.0000
vn 0.8991 0.4378 0.0000
vn 0.0000 1.0000 0.0000
vn 0.7988 0.6016 -0.0000
vn 0.0000 -1.0000 0.0000
vn -0.6926 0.7213 0.0000
vn -0.5315 0.8471 0.0000
vn 0.6926 0.7213 0.0000
vn -0.9500 0.3121 0.0000
vn -0.8991 0.4378 0.0000
vn 0.0000 0.0000 -1.0000
vn -0.9529 -0.2672 -0.1436
vn -0.9627 -0.2700 -0.0152
vn -0.8175 -0.5757 -0.0143
vn -0.7790 -0.6120 -0.1363
vn -0.9625 -0.2712 0.0000
vn -0.8644 -0.5027 0.0030
vn -0.5963 -0.7999 -0.0679
vn -0.5905 -0.8029 0.0815
vn -0.6947 -0.7172 0.0536
vn -0.7141 -0.6944 -0.0885
vn -0.5886 -0.8084 0.0000
vn -0.6833 -0.7301 0.0000
vn -0.8165 -0.5771 0.0172
vn -0.8273 -0.5486 -0.1210
vn -0.8076 -0.5897 0.0000
vn 0.0000 -0.9974 -0.0716
vn 0.0000 -0.9942 0.1070
vn -0.2768 -0.9554 0.1028
vn -0.2696 -0.9605 -0.0688
vn -0.2833 -0.9590 0.0000
vn -0.9186 -0.3950 -0.0071
vn -0.9139 -0.3816 -0.1384
vn -0.9158 -0.4016 0.0000
vn -0.9074 -0.3696 0.1997
vn -0.9470 -0.2605 0.1877
vn -0.2861 -0.9266 0.2441
vn -0.6013 -0.7701 0.2128
vn -0.8348 -0.5148 0.1953
vn 0.0000 -0.9739 0.2268
vn -0.7210 -0.6628 0.2018
vn -0.8382 -0.5412 0.0667
vn -0.9529 -0.2672 0.1436
vn -0.8144 -0.5653 0.1306
vn -0.8725 -0.4885 0.0129
vn -0.9627 -0.2700 0.0152
vn -0.5963 -0.7999 0.0679
vn -0.7141 -0.6944 0.0885
vn -0.6947 -0.7172 -0.0536
vn -0.5905 -0.8029 -0.0815
vn -0.8273 -0.5486 0.1210
vn -0.8165 -0.5771 -0.0172
vn 0.0000 -0.9974 0.0716
vn -0.2696 -0.9605 0.0688
vn -0.2768 -0.9554 -0.1028
vn 0.0000 -0.9942 -0.1070
vn -0.9139 -0.3816 0.1384
vn -0.9186 -0.3950 0.0071
vn -0.9245 -0.3777 -0.0501
vn -0.9633 -0.2649 -0.0435
vn -0.2878 -0.9556 -0.0630
vn -0.6115 -0.7893 -0.0553
vn -0.8488 -0.5269 -0.0424
vn 0.0000 -0.9983 -0.0588
vn -0.7341 -0.6773 -0.0478
vn -0.8321 -0.5524 0.0493
vn 0.9529 -0.2672 -0.1436
vn 0.7790 -0.6120 -0.1363
vn 0.8175 -0.5757 -0.0143
vn 0.9627 -0.2700 -0.0152
vn 0.8644 -0.5027 0.0030
vn 0.9625 -0.2712 0.0000
vn 0.5963 -0.7999 -0.0679
vn 0.7141 -0.6944 -0.0885
vn 0.6947 -0.7172 0.0536
vn 0.5905 -0.8029 0.0815
vn 0.6833 -0.7301 0.0000
vn 0.5886 -0.8084 0.0000
vn 0.8273 -0.5486 -0.1210
vn 0.8165 -0.5771 0.0172
vn 0.8076 -0.5897 0.0000
vn 0.2696 -0.9605 -0.0688
vn 0.2768 -0.9554 0.1028
vn 0.2833 -0.9590 0.0000
vn 0.9139 -0.3816 -0.1384
vn 0.9186 -0.3950 -0.0071
vn 0.9158 -0.4016 0.0000
vn 0.9074 -0.3696 0.1997
vn 0.9470 -0.2605 0.1877
vn 0.2861 -0.9266 0.2441
vn 0.6013 -0.7701 0.2128
vn 0.8348 -0.5148 0.1953
vn 0.7210 -0.6628 0.2018
vn 0.8382 -0.5412 0.0667
vn 0.9529 -0.2672 0.1436
vn 0.9627 -0.2700 0.0152
vn 0.8725 -0.4885 0.0129
vn 0.8144 -0.5653 0.1306
vn 0.5963 -0.7999 0.0679
vn 0.5905 -0.8029 -0.0815
vn 0.6947 -0.7172 -0.0536
vn 0.7141 -0.6944 0.0885
vn 0.8165 -0.5771 -0.0172
vn 0.8273 -0.5486 0.1210
vn 0.2768 -0.9554 -0.1028
vn 0.2696 -0.9605 0.0688
vn 0.9186 -0.3950 0.0071
vn 0.9139 -0.3816 0.1384
vn 0.9245 -0.3777 -0.0501
vn 0.9633 -0.2649 -0.0435
vn 0.2878 -0.9556 -0.0630
vn 0.6115 -0.7893 -0.0553
vn 0.8488 -0.5269 -0.0424
vn 0.7341 -0.6773 -0.0478
vn 0.8321 -0.5524 0.0493
vn -0.1886 -0.2496 0.9498
vn -0.1928 -0.3054 0.9325
vn 0.2402 -0.0822 0.9672
vn 0.0000 -0.3271 0.9449
vn -0.0469 -0.2385 0.9700
vn 0.2075 0.7135 0.6692
vn 0.0000 0.6968 0.7173
vn -0.2663 -0.1070 0.9579
vn -0.3031 -0.0627 0.9509
vn 0.7036 0.1704 0.6898
vn 0.6657 0.3075 0.6799
vn -0.7853 -0.1956 0.5873
vn -0.7635 -0.6002 0.2383
vn 0.4274 0.6009 0.6754
vn -0.2376 -0.1829 0.9539
vn 0.6999 0.1664 0.6946
vn 0.3473 0.0841 0.9340
vn 0.9622 0.2337 0.1397
vn 0.6691 -0.4917 0.5573
vn 0.8366 -0.5414 0.0836
vn 0.9778 0.2093 -0.0015
vn 0.9711 0.2382 0.0132
vn 0.8414 -0.5394 0.0335
vn 0.6886 -0.5045 -0.5208
vn -0.1164 -0.9913 -0.0612
vn -0.2275 -0.9736 0.0174
vn -0.2651 -0.8366 -0.4793
vn 0.5678 0.8229 0.0201
vn 0.9129 0.4079 0.0136
vn 0.8485 0.5153 -0.1203
vn 0.5457 0.8310 -0.1077
vn 0.7770 0.6294 0.0067
vn 0.5381 0.8428 0.0000
vn 0.9537 0.3001 -0.0175
vn 0.8214 0.5685 0.0459
vn 0.7652 0.6429 -0.0339
vn 0.7790 0.6230 -0.0700
vn 0.7489 0.6624 0.0171
vn 0.7340 0.6789 0.0176
vn 0.0000 1.0000 0.0072
vn 0.2662 0.9639 0.0086
vn 0.2755 0.9515 -0.1366
vn 0.0000 0.9900 -0.1408
vn 0.2779 0.9606 0.0000
vn 0.8950 0.4248 0.1353
vn 0.8968 0.4423 -0.0015
vn 0.8586 0.4176 0.2973
vn 0.7709 0.0950 0.6297
vn 0.7763 0.2981 0.5553
vn 0.8981 0.4247 0.1136
vn 0.7380 0.2542 0.6250
vn 0.9450 0.2784 0.1715
vn -0.2498 -0.6735 0.6957
vn -0.4702 -0.8770 -0.0983
vn -0.5922 -0.8057 -0.0063
vn -0.5905 -0.8019 -0.0908
vn -0.5959 -0.5489 0.5861
vn -0.6795 -0.4333 0.5920
vn -0.7335 -0.3044 0.6077
vn -0.2113 -0.7343 0.6451
vn -0.4835 -0.6391 0.5980
vn 0.0000 -0.7585 0.6517
vn -0.0426 -0.0777 -0.9960
vn 0.1831 0.1400 -0.9731
vn 0.2191 0.1317 -0.9668
vn -0.0343 -0.0661 -0.9972
vn 0.0000 -0.1060 -0.9944
vn 0.0000 0.6968 -0.7173
vn 0.2075 0.7135 -0.6692
vn 0.0009 -0.0530 -0.9986
vn -0.0592 -0.0210 -0.9980
vn 0.6657 0.3075 -0.6799
vn 0.7036 0.1704 -0.6898
vn -0.0864 -0.0131 -0.9962
vn -0.7196 -0.1804 -0.6705
vn -0.7218 -0.5538 -0.4150
vn 0.4209 0.5936 -0.6859
vn -0.0435 -0.0381 -0.9983
vn 0.6042 0.4272 -0.6726
vn 0.6062 0.4057 -0.6840
vn 0.9631 0.2309 -0.1379
vn 0.8420 -0.5273 -0.1137
vn 0.6691 -0.4917 -0.5573
vn 0.7318 -0.4911 0.4725
vn 0.8192 -0.5727 -0.0291
vn 0.9719 0.2348 -0.0153
vn -0.1707 -0.9850 0.0227
vn -0.2478 -0.9687 -0.0153
vn -0.1944 -0.8696 0.4539
vn 0.5621 0.8268 -0.0195
vn 0.5440 0.8319 0.1094
vn 0.7458 0.6597 0.0926
vn 0.7947 0.6067 -0.0178
vn 0.7857 0.6139 -0.0754
vn 0.7331 0.6775 0.0595
vn 0.7688 0.6392 0.0195
vn 0.7938 0.5972 -0.1149
vn 0.0000 1.0000 -0.0072
vn 0.0000 0.9900 0.1408
vn 0.2755 0.9515 0.1366
vn 0.2662 0.9639 -0.0086
vn 0.8757 0.4028 -0.2664
vn 0.8950 0.4248 -0.1353
vn 0.8497 0.4295 -0.3057
vn 0.9463 -0.0445 -0.3202
vn 0.9861 0.0860 -0.1418
vn 0.7018 0.3945 -0.5931
vn -0.1414 -0.7100 -0.6898
vn -0.5658 -0.8203 0.0828
vn -0.6881 -0.7255 0.0035
vn -0.5492 -0.5039 -0.6667
vn -0.6218 -0.3948 -0.6764
vn -0.6717 -0.2759 -0.6875
vn -0.1918 -0.6622 -0.7244
vn -0.4476 -0.5904 -0.6716
vn 0.0000 -0.7201 -0.6939
vn 0.8146 0.4017 0.4183
vn 0.9355 -0.0890 0.3419
vn 0.9781 0.0971 0.1840
vn 0.9504 0.2930 -0.1039
vn 0.8243 0.5611 0.0754
vn 0.8979 0.4394 -0.0234
vn 0.8687 0.4950 0.0179
vn 0.6808 0.2637 -0.6833
vn 0.1886 -0.2496 0.9498
vn -0.2402 -0.0822 0.9672
vn 0.1928 -0.3054 0.9325
vn -0.2075 0.7135 0.6692
vn 0.0469 -0.2385 0.9700
vn 0.2663 -0.1070 0.9579
vn -0.6657 0.3075 0.6799
vn -0.7036 0.1704 0.6898
vn 0.3031 -0.0627 0.9509
vn 0.7853 -0.1956 0.5873
vn 0.7635 -0.6002 0.2383
vn -0.4274 0.6009 0.6754
vn 0.2376 -0.1829 0.9539
vn -0.6999 0.1664 0.6946
vn -0.3473 0.0841 0.9340
vn -0.9622 0.2337 0.1397
vn -0.8366 -0.5414 0.0836
vn -0.6691 -0.4917 0.5573
vn -0.9778 0.2093 -0.0015
vn -0.6886 -0.5045 -0.5208
vn -0.8414 -0.5394 0.0335
vn -0.9711 0.2382 0.0132
vn 0.1164 -0.9913 -0.0612
vn 0.2275 -0.9736 0.0174
vn 0.2651 -0.8366 -0.4793
vn -0.5678 0.8229 0.0201
vn -0.5457 0.8310 -0.1077
vn -0.8485 0.5153 -0.1203
vn -0.9129 0.4079 0.0136
vn -0.5381 0.8428 0.0000
vn -0.7770 0.6294 0.0067
vn -0.9537 0.3001 -0.0175
vn -0.7790 0.6230 -0.0700
vn -0.7652 0.6429 -0.0339
vn -0.8214 0.5685 0.0459
vn -0.7340 0.6789 0.0176
vn -0.7489 0.6624 0.0171
vn -0.2755 0.9515 -0.1366
vn -0.2662 0.9639 0.0086
vn -0.2779 0.9606 0.0000
vn -0.8968 0.4423 -0.0015
vn -0.8950 0.4248 0.1353
vn -0.8586 0.4176 0.2973
vn -0.7709 0.0950 0.6297
vn -0.8981 0.4247 0.1136
vn -0.7763 0.2981 0.5553
vn -0.9450 0.2784 0.1715
vn -0.7380 0.2542 0.6250
vn 0.2498 -0.6735 0.6957
vn 0.4702 -0.8770 -0.0983
vn 0.5922 -0.8057 -0.0063
vn 0.5905 -0.8019 -0.0908
vn 0.5959 -0.5489 0.5861
vn 0.6795 -0.4333 0.5920
vn 0.7335 -0.3044 0.6077
vn 0.2113 -0.7343 0.6451
vn 0.4835 -0.6391 0.5980
vn 0.0426 -0.0777 -0.9960
vn 0.0343 -0.0661 -0.9972
vn -0.2191 0.1317 -0.9668
vn -0.1831 0.1400 -0.9731
vn -0.0009 -0.0530 -0.9986
vn -0.2075 0.7135 -0.6692
vn 0.0592 -0.0210 -0.9980
vn 0.0864 -0.0131 -0.9962
vn -0.7036 0.1704 -0.6898
vn -0.6657 0.3075 -0.6799
vn 0.7196 -0.1804 -0.6705
vn 0.7218 -0.5538 -0.4150
vn -0.4209 0.5936 -0.6859
vn 0.0435 -0.0381 -0.9983
vn -0.6042 0.4272 -0.6726
vn -0.6062 0.4057 -0.6840
vn -0.9631 0.2309 -0.1379
vn -0.6691 -0.4917 -0.5573
vn -0.8420 -0.5273 -0.1137
vn -0.9719 0.2348 -0.0153
vn -0.8192 -0.5727 -0.0291
vn -0.7318 -0.4911 0.4725
vn 0.1707 -0.9850 0.0227
vn 0.2478 -0.9687 -0.0153
vn 0.1944 -0.8696 0.4539
vn -0.5621 0.8268 -0.0195
vn -0.7947 0.6067 -0.0178
vn -0.7458 0.6597 0.0926
vn -0.5440 0.8319 0.1094
vn -0.7857 0.6139 -0.0754
vn -0.7938 0.5972 -0.1149
vn -0.7688 0.6392 0.0195
vn -0.7331 0.6775 0.0595
vn -0.2662 0.9639 -0.0086
vn -0.2755 0.9515 0.1366
vn -0.8950 0.4248 -0.1353
vn -0.8757 0.4028 -0.2664
vn -0.8497 0.4295 -0.3057
vn -0.9861 0.0860 -0.1418
vn -0.9463 -0.0445 -0.3202
vn -0.7018 0.3945 -0.5931
vn 0.1414 -0.7100 -0.6898
vn 0.5658 -0.8203 0.0828
vn 0.6881 -0.7255 0.0035
vn 0.5492 -0.5039 -0.6667
vn 0.6218 -0.3948 -0.6764
vn 0.6717 -0.2759 -0.6875
vn 0.1918 -0.6622 -0.7244
vn 0.4476 -0.5904 -0.6716
vn -0.8146 0.4017 0.4183
vn -0.9355 -0.0890 0.3419
vn -0.9781 0.0971 0.1840
vn -0.9504 0.2930 -0.1039
vn -0.8979 0.4394 -0.0234
vn -0.8243 0.5611 0.0754
vn -0.8687 0.4950 0.0179
vn -0.6808 0.2637 -0.6833
vn 0.5857 0.5574 -0.5884
vn -0.5857 0.5574 -0.5884
vn -0.5857 0.5574 0.5884
vn 0.5857 0.5574 0.5884
vn 0.7068 0.0095 0.7074
vn -0.7068 0.0095 0.7074
vn -0.5773 -0.5773 0.5773
vn 0.5773 -0.5773 0.5773
vn -0.5773 -0.5773 -0.5773
vn 0.5773 -0.5773 -0.5773
vn 0.7085 -0.0077 -0.7056
vn -0.7085 -0.0077 -0.7056
vn 0.7068 0.0095 -0.7074
vn -0.7085 -0.0077 0.7056
vn -0.7068 0.0095 -0.7074
vn -0.7071 0.0156 0.7069
vn -0.7071 0.0156 -0.7069
vn -0.7075 -0.0020 0.7067
vn -0.7075 -0.0020 -0.7067
vn -0.7062 0.0112 0.7079
vn -0.7062 0.0112 -0.7079
vn 0.7085 -0.0077 0.7056
vn 0.7062 0.0112 0.7079
vn 0.7062 0.0112 -0.7079
vn 0.7075 -0.0020 0.7067
vn 0.7075 -0.0020 -0.7067
vn 0.7071 0.0156 0.7069
vn 0.7071 0.0156 -0.7069
vn -0.5615 0.5851 -0.5851
vn -0.5615 -0.5851 -0.5851
vn -0.5615 -0.5851 0.5851
vn -0.5615 0.5851 0.5851
vn -0.0076 0.7071 0.7071
vn -0.0076 -0.7071 0.7071
vn 0.5773 0.5773 0.5773
vn 0.5773 0.5773 -0.5773
vn 0.0061 0.7071 -0.7071
vn 0.0061 -0.7071 -0.7071
vn -0.0076 0.7071 -0.7071
vn 0.0061 -0.7071 0.7071
vn -0.0076 -0.7071 -0.7071
vn -0.0124 -0.7070 0.7070
vn -0.0124 -0.7070 -0.7071
vn 0.0016 -0.7071 0.7071
vn 0.0016 -0.7071 -0.7071
vn -0.0089 -0.7071 0.7071
vn -0.0089 -0.7071 -0.7071
vn 0.0061 0.7071 0.7071
vn -0.0089 0.7071 0.7071
vn -0.0089 0.7071 -0.7071
vn 0.0016 0.7071 0.7071
vn 0.0016 0.7071 -0.7071
vn -0.0124 0.7070 0.7070
vn -0.0124 0.7071 -0.7070
vn -0.0124 -0.7071 0.7070
vn -0.0124 0.7071 0.7070
vn -0.0124 0.7070 -0.7070
vn -0.9121 0.4098 0.0094
vn -0.9282 -0.3720 -0.0106
vn -0.8734 -0.4103 0.2623
vn -0.8916 0.2345 0.3873
vn 0.9257 0.3700 0.0776
vn 0.9233 -0.3804 -0.0521
vn 0.9301 -0.3659 -0.0331
vn 0.9190 0.3885 0.0670
vn -0.8851 0.2268 -0.4063
vn -0.8668 -0.4101 -0.2837
vn -0.9269 -0.3753 -0.0053
vn -0.9134 0.4062 -0.0235
vn 0.3872 -0.9218 0.0155
vn 0.3413 -0.9121 0.2271
vn -0.3413 -0.9121 0.2271
vn -0.3872 -0.9218 0.0155
vn 0.3482 0.0600 -0.9355
vn 0.3377 -0.5556 -0.7598
vn -0.3377 -0.5556 -0.7598
vn -0.3482 0.0600 -0.9355
vn 0.8916 0.2345 0.3873
vn 0.8734 -0.4103 0.2623
vn 0.9282 -0.3720 -0.0106
vn 0.9121 0.4098 0.0094
vn 0.9134 0.4062 -0.0235
vn 0.9269 -0.3753 -0.0053
vn 0.8668 -0.4101 -0.2837
vn 0.8851 0.2268 -0.4063
vn -0.9271 0.3703 -0.0574
vn -0.9214 -0.3802 0.0806
vn -0.9300 -0.3637 0.0524
vn -0.9199 0.3885 -0.0526
vn 0.3884 -0.9147 -0.1111
vn 0.3818 -0.9138 -0.1385
vn -0.3818 -0.9138 -0.1385
vn -0.3884 -0.9147 -0.1111
vn 0.3819 -0.9159 -0.1238
vn 0.3768 -0.9243 -0.0598
vn -0.3768 -0.9243 -0.0598
vn -0.3819 -0.9159 -0.1238
vn 0.3767 -0.9245 0.0584
vn 0.3829 -0.9143 0.1320
vn -0.3829 -0.9143 0.1320
vn -0.3767 -0.9245 0.0584
vn -0.3555 0.0665 0.9323
vn -0.3435 -0.5607 0.7533
vn 0.3435 -0.5607 0.7533
vn 0.3555 0.0665 0.9323
vn 0.3814 -0.9089 0.1683
vn 0.3856 -0.9128 0.1346
vn -0.3856 -0.9128 0.1346
vn -0.3814 -0.9089 0.1683
vn 0.9199 0.3885 -0.0526
vn 0.9300 -0.3637 0.0524
vn 0.9214 -0.3802 0.0806
vn 0.9271 0.3703 -0.0574
vn 0.9244 0.3765 -0.0605
vn 0.9228 -0.3815 0.0538
vn 0.9182 -0.3955 0.0232
vn 0.9304 0.3651 -0.0320
vn 0.9304 0.3652 0.0302
vn 0.9181 -0.3955 -0.0249
vn 0.9235 -0.3808 -0.0459
vn 0.9243 0.3761 0.0652
vn 0.3377 -0.9069 -0.2520
vn 0.3880 -0.9211 -0.0305
vn -0.3880 -0.9211 -0.0305
vn -0.3377 -0.9069 -0.2520
vn -0.9190 0.3885 0.0670
vn -0.9301 -0.3659 -0.0331
vn -0.9233 -0.3804 -0.0521
vn -0.9257 0.3700 0.0776
vn -0.9243 0.3761 0.0652
vn -0.9235 -0.3808 -0.0459
vn -0.9181 -0.3955 -0.0249
vn -0.9304 0.3652 0.0302
vn -0.9304 0.3651 -0.0320
vn -0.9182 -0.3955 0.0232
vn -0.9228 -0.3815 0.0538
vn -0.9244 0.3765 -0.0605
vn 0.3785 0.9216 -0.0856
vn 0.3482 0.7649 -0.5419
vn -0.3482 0.7649 -0.5419
vn -0.3785 0.9216 -0.0856
vn 0.3760 0.9215 -0.0971
vn 0.3865 0.9077 -0.1635
vn -0.3865 0.9077 -0.1635
vn -0.3760 0.9215 -0.0971
vn 0.3848 0.9119 -0.1424
vn 0.3895 0.9184 -0.0697
vn -0.3895 0.9184 -0.0697
vn -0.3848 0.9119 -0.1424
vn 0.3897 0.9184 0.0682
vn 0.3838 0.9118 0.1459
vn -0.3838 0.9118 0.1459
vn -0.3897 0.9184 0.0682
vn 0.3845 0.9055 0.1792
vn 0.3782 0.9197 0.1055
vn -0.3782 0.9197 0.1055
vn -0.3845 0.9055 0.1792
vn -0.3510 0.7737 0.5275
vn 0.3510 0.7737 0.5275
vn 0.3750 0.9241 0.0732
vn -0.3750 0.9241 0.0732
g Cube.006_Cube.007_Material
usemtl Material
s off
f 348/1/1 346/2/1 358/3/1 360/4/1
f 356/5/2 354/6/2 366/7/2 368/8/2
f 349/9/3 351/10/3 363/11/3 361/12/3
f 345/13/4 346/2/4 348/1/4 347/14/4
f 350/15/5 348/1/5 360/4/5 362/16/5
f 355/17/6 356/5/6 368/8/6 367/18/6
f 347/14/4 348/1/4 350/15/4 349/9/4
f 352/19/7 350/15/7 362/16/7 364/20/7
f 346/2/8 345/13/8 357/21/8 358/3/8
f 349/9/4 350/15/4 352/19/4 351/10/4
f 351/10/9 353/22/9 365/23/9 363/11/9
f 353/22/10 355/17/10 367/18/10 365/23/10
f 354/6/11 352/19/11 364/20/11 366/7/11
f 351/10/4 352/19/4 354/6/4 353/22/4
f 345/13/12 347/14/12 359/24/12 357/21/12
f 353/22/4 354/6/4 356/5/4 355/17/4
f 347/14/13 349/9/13 361/12/13 359/24/13
f 357/21/14 359/24/14 360/4/14 358/3/14
f 359/24/14 361/12/14 362/16/14 360/4/14
f 361/12/14 363/11/14 364/20/14 362/16/14
f 363/11/14 365/23/14 366/7/14 364/20/14
f 365/23/14 367/18/14 368/8/14 366/7/14
f 428/25/1 426/26/1 438/27/1 440/28/1
f 436/29/2 434/30/2 446/31/2 448/32/2
f 429/33/3 431/34/3 443/35/3 441/36/3
f 425/37/4 426/26/4 428/25/4 427/38/4
f 430/39/5 428/25/5 440/28/5 442/40/5
f 435/41/6 436/29/6 448/32/6 447/42/6
f 427/38/4 428/25/4 430/39/4 429/33/4
f 432/43/7 430/39/7 442/40/7 444/44/7
f 426/26/8 425/37/8 437/45/8 438/27/8
f 429/33/4 430/39/4 432/43/4 431/34/4
f 431/34/9 433/46/9 445/47/9 443/35/9
f 433/46/10 435/41/10 447/42/10 445/47/10
f 434/30/11 432/43/11 444/44/11 446/31/11
f 431/34/4 432/43/4 434/30/4 433/46/4
f 425/37/12 427/38/12 439/48/12 437/45/12
f 433/46/4 434/30/4 436/29/4 435/41/4
f 427/38/13 429/33/13 441/36/13 439/48/13
f 437/45/14 439/48/14 440/28/14 438/27/14
f 439/48/14 441/36/14 442/40/14 440/28/14
f 441/36/14 443/35/14 444/44/14 442/40/14
f 443/35/14 445/47/14 446/31/14 444/44/14
f 445/47/14 447/42/14 448/32/14 446/31/14
s 1
f 15/49/15 11/50/16 14/51/17 17/52/18
f 11/50/16 35/53/19 41/54/20 14/51/17
f 16/55/21 13/56/22 12/57/23 21/58/24
f 13/56/22 39/59/25 38/60/26 12/57/23
f 21/58/24 12/57/23 10/61/27 20/62/28
f 12/57/23 38/60/26 34/63/29 10/61/27
f 177/64/30 178/65/31 9/66/32 19/67/33
f 178/65/31 208/68/8 32/69/34 9/66/32
f 20/62/28 10/61/27 8/70/35 18/71/36
f 10/61/27 34/63/29 30/72/37 8/70/35
f 19/67/33 9/66/32 13/56/22 16/55/21
f 9/66/32 32/69/34 39/59/25 13/56/22
f 18/71/36 8/70/35 11/50/16 15/49/15
f 8/70/35 30/72/37 35/53/19 11/50/16
f 2/73/38 18/71/36 15/49/15 1/74/39
f 6/75/40 19/67/33 16/55/21 5/76/41
f 3/77/42 20/62/28 18/71/36 2/73/38
f 180/78/43 177/64/30 19/67/33 6/75/40
f 4/79/44 21/58/24 20/62/28 3/77/42
f 5/76/41 16/55/21 21/58/24 4/79/44
f 1/74/39 15/49/15 17/52/18 7/80/45
f 43/81/46 45/82/47 42/83/48 36/84/49
f 36/84/49 42/83/48 41/54/20 35/53/19
f 44/85/50 49/86/51 37/87/52 40/88/53
f 40/88/53 37/87/52 38/60/26 39/59/25
f 49/86/51 48/89/54 33/90/55 37/87/52
f 37/87/52 33/90/55 34/63/29 38/60/26
f 207/91/56 47/92/57 31/93/58 209/94/59
f 209/94/59 31/93/58 32/69/34 208/68/8
f 48/89/54 46/95/60 29/96/61 33/90/55
f 33/90/55 29/96/61 30/72/37 34/63/29
f 47/92/57 44/85/50 40/88/53 31/93/58
f 31/93/58 40/88/53 39/59/25 32/69/34
f 46/95/60 43/81/46 36/84/49 29/96/61
f 29/96/61 36/84/49 35/53/19 30/72/37
f 23/97/62 22/98/63 43/81/46 46/95/60
f 27/99/64 26/100/65 44/85/50 47/92/57
f 24/101/66 23/97/62 46/95/60 48/89/54
f 212/102/67 27/99/64 47/92/57 207/91/56
f 25/103/68 24/101/66 48/89/54 49/86/51
f 26/100/65 25/103/68 49/86/51 44/85/50
f 22/98/63 28/104/69 45/82/47 43/81/46
f 181/105/70 183/106/71 179/107/72 174/108/73
f 174/108/73 179/107/72 210/109/74 201/110/75
f 182/111/76 187/112/77 175/113/78 176/114/79
f 176/114/79 175/113/78 204/115/80 205/116/81
f 187/112/77 186/117/82 173/118/83 175/113/78
f 175/113/78 173/118/83 200/119/84 204/115/80
f 177/64/30 185/120/85 172/121/86 178/65/31
f 178/65/31 172/121/86 198/122/87 208/68/8
f 186/117/82 184/123/88 171/124/89 173/118/83
f 173/118/83 171/124/89 196/125/90 200/119/84
f 185/120/85 182/111/76 176/114/79 172/121/86
f 172/121/86 176/114/79 205/116/81 198/122/87
f 184/123/88 181/105/70 174/108/73 171/124/89
f 171/124/89 174/108/73 201/110/75 196/125/90
f 165/126/91 164/127/92 181/105/70 184/123/88
f 169/128/93 168/129/94 182/111/76 185/120/85
f 166/130/95 165/126/91 184/123/88 186/117/82
f 180/78/43 169/128/93 185/120/85 177/64/30
f 167/131/96 166/130/95 186/117/82 187/112/77
f 168/129/94 167/131/96 187/112/77 182/111/76
f 164/127/92 170/132/97 183/106/71 181/105/70
f 213/133/98 202/134/99 211/135/100 215/136/101
f 202/134/99 201/110/75 210/109/74 211/135/100
f 214/137/102 206/138/103 203/139/104 219/140/105
f 206/138/103 205/116/81 204/115/80 203/139/104
f 219/140/105 203/139/104 199/141/106 218/142/107
f 203/139/104 204/115/80 200/119/84 199/141/106
f 207/91/56 209/94/59 197/143/108 217/144/109
f 209/94/59 208/68/8 198/122/87 197/143/108
f 218/142/107 199/141/106 195/145/110 216/146/111
f 199/141/106 200/119/84 196/125/90 195/145/110
f 217/144/109 197/143/108 206/138/103 214/137/102
f 197/143/108 198/122/87 205/116/81 206/138/103
f 216/146/111 195/145/110 202/134/99 213/133/98
f 195/145/110 196/125/90 201/110/75 202/134/99
f 189/147/112 216/146/111 213/133/98 188/148/113
f 193/149/114 217/144/109 214/137/102 192/150/115
f 190/151/116 218/142/107 216/146/111 189/147/112
f 212/102/67 207/91/56 217/144/109 193/149/114
f 191/152/117 219/140/105 218/142/107 190/151/116
f 192/150/115 214/137/102 219/140/105 191/152/117
f 188/148/113 213/133/98 215/136/101 194/153/118
g Cube.006_Cube.007_Material.001
usemtl Material.001
f 72/154/119 71/155/120 149/156/121
f 251/157/122 73/158/123 55/159/124 235/160/125
f 75/161/126 74/162/127 51/163/128 50/164/129
f 123/165/130 1/166/39 7/167/45 124/168/131
f 73/158/123 72/154/119 54/169/132 55/159/124
f 76/170/133 75/161/126 50/164/129 52/171/134
f 71/155/120 76/170/133 147/172/135
f 64/173/136 51/163/128 56/174/137 66/175/138
f 93/176/139 60/177/140 63/178/141 137/179/142
f 79/180/143 78/181/144 63/178/141 66/175/138
f 78/181/144 138/182/145 137/179/142 63/178/141
f 65/183/146 151/184/147 154/185/148 62/186/149
f 62/186/149 154/185/148 152/187/150 97/188/151
f 70/189/152 69/190/153 59/191/154 61/192/155
f 61/192/155 59/191/154 92/193/156 96/194/157
f 232/195/158 68/196/159 58/197/160 234/198/161
f 234/198/161 58/197/160 90/199/162 274/200/6
f 69/190/153 67/201/163 57/202/164 59/191/154
f 59/191/154 57/202/164 88/203/165 92/193/156
f 68/196/159 65/183/146 62/186/149 58/197/160
f 58/197/160 62/186/149 97/188/151 90/199/162
f 67/201/163 64/173/136 60/177/140 57/202/164
f 57/202/164 60/177/140 93/176/139 88/203/165
f 50/164/129 51/163/128 64/173/136 67/201/163
f 55/159/124 54/169/132 65/183/146 68/196/159
f 52/171/134 50/164/129 67/201/163 69/190/153
f 235/160/125 55/159/124 68/196/159 232/195/158
f 53/204/166 146/205/167 145/206/168 70/189/152
f 54/169/132 148/207/169 150/208/170 65/183/146
f 77/209/171 79/180/143 66/175/138 56/174/137
f 60/177/140 64/173/136 66/175/138 63/178/141
f 124/168/131 127/210/172 79/180/143 77/209/171
f 125/211/173 126/212/174 138/182/145 78/181/144
f 127/210/172 125/211/173 78/181/144 79/180/143
f 121/213/175 120/214/176 76/170/133 71/155/120
f 120/214/176 119/215/177 75/161/126 76/170/133
f 122/216/178 118/217/179 72/154/119 73/158/123
f 51/163/128 74/162/127 77/209/171 56/174/137
f 119/215/177 123/165/130 74/162/127 75/161/126
f 304/218/180 122/216/178 73/158/123 251/157/122
f 118/217/179 121/213/175 71/155/120 72/154/119
f 109/219/181 157/220/182 163/221/183 108/222/184
f 293/223/185 276/224/186 85/225/187 110/226/188
f 112/227/189 80/228/190 81/229/191 111/230/192
f 133/231/193 134/232/194 28/233/69 22/234/63
f 110/226/188 85/225/187 84/235/195 109/219/181
f 113/236/196 82/237/197 80/228/190 112/227/189
f 108/222/184 83/238/198 82/237/197 113/236/196
f 101/239/199 103/240/200 86/241/201 81/229/191
f 93/176/139 99/242/202 100/243/203 94/244/204
f 117/245/205 103/240/200 100/243/203 115/246/206
f 115/246/206 100/243/203 99/242/202 116/247/207
f 102/248/208 98/249/209 155/250/210 153/251/211
f 98/249/209 97/188/151 152/187/150 155/250/210
f 107/252/212 95/253/213 91/254/214 106/255/215
f 95/253/213 96/194/157 92/193/156 91/254/214
f 271/256/216 275/257/217 89/258/218 105/259/219
f 275/257/217 274/200/6 90/199/162 89/258/218
f 106/255/215 91/254/214 87/260/220 104/261/221
f 91/254/214 139/262/222 87/260/220
f 105/259/219 89/258/218 98/249/209 102/248/208
f 89/258/218 90/199/162 97/188/151 98/249/209
f 104/261/221 87/260/220 94/244/204 101/239/199
f 87/260/220 139/262/222 142/263/223 143/264/224
f 80/228/190 104/261/221 101/239/199 81/229/191
f 85/225/187 105/259/219 102/248/208 84/235/195
f 82/237/197 106/255/215 104/261/221 80/228/190
f 276/224/186 271/256/216 105/259/219 85/225/187
f 83/238/198 107/252/212 106/255/215 82/237/197
f 84/235/195 102/248/208 153/251/211 156/265/225
f 114/266/226 86/241/201 103/240/200 117/245/205
f 94/244/204 100/243/203 103/240/200 101/239/199
f 134/232/194 114/266/226 117/245/205 136/267/227
f 135/268/228 115/246/206 116/247/207 126/212/174
f 136/267/227 117/245/205 115/246/206 135/268/228
f 131/269/229 108/222/184 113/236/196 130/270/230
f 130/270/230 113/236/196 112/227/189 129/271/231
f 132/272/232 110/226/188 109/219/181 128/273/233
f 81/229/191 86/241/201 114/266/226 111/230/192
f 129/271/231 112/227/189 111/230/192 133/231/193
f 315/274/234 293/223/185 110/226/188 132/272/232
f 128/273/233 109/219/181 108/222/184 131/269/229
f 26/275/65 128/273/233 131/269/229 25/276/68
f 212/277/67 315/274/234 132/272/232 27/278/64
f 23/279/62 129/271/231 133/231/193 22/234/63
f 27/278/64 132/272/232 128/273/233 26/275/65
f 24/280/66 130/270/230 129/271/231 23/279/62
f 25/276/68 131/269/229 130/270/230 24/280/66
f 45/281/47 136/267/227 135/268/228 42/282/48
f 42/282/48 135/268/228 126/212/174 41/283/20
f 28/233/69 134/232/194 136/267/227 45/281/47
f 111/230/192 114/266/226 134/232/194 133/231/193
f 5/284/41 4/285/44 121/213/175 118/217/179
f 180/286/43 6/287/40 122/216/178 304/218/180
f 2/288/38 1/166/39 123/165/130 119/215/177
f 6/287/40 5/284/41 118/217/179 122/216/178
f 3/289/42 2/288/38 119/215/177 120/214/176
f 4/285/44 3/289/42 120/214/176 121/213/175
f 17/290/18 14/291/17 125/211/173 127/210/172
f 14/291/17 41/283/20 126/212/174 125/211/173
f 7/167/45 17/290/18 127/210/172 124/168/131
f 74/162/127 123/165/130 124/168/131 77/209/171
f 99/292/202 93/293/139 126/294/174 116/295/207
f 137/296/142 138/297/145 126/294/174 93/293/139
f 140/298/235 141/299/236 142/263/223 139/262/222
f 139/262/222 91/254/214 92/193/156 140/298/235
f 140/298/235 92/193/156 88/203/165
f 94/244/204 143/264/224 144/300/237 93/176/139
f 144/300/237 88/203/165 93/176/139
f 144/300/237 143/264/224 142/263/223 141/299/236
f 88/203/165 144/300/237 141/299/236 140/298/235
f 87/260/220 143/264/224 94/244/204
f 70/189/152 145/206/168 69/190/153
f 145/206/168 146/205/167 52/171/134 69/190/153
f 146/205/167 147/172/135 76/170/133 52/171/134
f 147/172/135 146/205/167 53/204/166 71/155/120
f 149/156/121 148/207/169 54/169/132 72/154/119
f 65/183/146 150/208/170 151/184/147
f 70/189/152 150/208/170 148/207/169 53/204/166
f 149/156/121 71/155/120 53/204/166 148/207/169
f 154/185/148 151/184/147 70/189/152 160/301/238
f 153/251/211 155/250/210 159/302/239 161/303/240
f 151/184/147 150/208/170 70/189/152
f 152/187/150 154/185/148 160/301/238 158/304/241
f 155/250/210 152/187/150 158/304/241 159/302/239
f 156/265/225 153/251/211 161/303/240 162/305/242
f 108/222/184 163/221/183 162/305/242 83/238/198
f 157/220/182 109/219/181 84/235/195 156/265/225
f 159/302/239 158/304/241 96/194/157 95/253/213
f 161/303/240 159/302/239 95/253/213 107/252/212
f 158/304/241 160/301/238 61/192/155 96/194/157
f 160/301/238 70/189/152 61/192/155
f 162/305/242 161/303/240 107/252/212 83/238/198
f 162/305/242 163/221/183 157/220/182 156/265/225
f 245/306/243 330/307/244 244/308/245
f 251/157/122 235/160/125 225/309/246 246/310/247
f 248/311/248 220/312/249 221/313/250 247/314/251
f 302/315/252 303/316/253 170/317/97 164/318/92
f 246/310/247 225/309/246 224/319/254 245/306/243
f 249/320/255 222/321/256 220/312/249 248/311/248
f 244/308/245 328/322/257 249/320/255
f 237/323/258 239/324/259 226/325/260 221/313/250
f 267/326/261 318/327/262 236/328/263 230/329/264
f 253/330/265 239/324/259 236/328/263 252/331/266
f 252/331/266 236/328/263 318/327/262 319/332/267
f 238/333/268 233/334/269 335/335/270 332/336/271
f 233/334/269 272/337/272 333/338/273 335/335/270
f 243/339/274 231/340/275 229/341/276 242/342/277
f 231/340/275 270/343/278 266/344/279 229/341/276
f 232/195/158 234/198/161 228/345/280 241/346/281
f 234/198/161 274/200/6 264/347/282 228/345/280
f 242/342/277 229/341/276 227/348/283 240/349/284
f 229/341/276 266/344/279 262/350/285 227/348/283
f 241/346/281 228/345/280 233/334/269 238/333/268
f 228/345/280 264/347/282 272/337/272 233/334/269
f 240/349/284 227/348/283 230/329/264 237/323/258
f 227/348/283 262/350/285 267/326/261 230/329/264
f 220/312/249 240/349/284 237/323/258 221/313/250
f 225/309/246 241/346/281 238/333/268 224/319/254
f 222/321/256 242/342/277 240/349/284 220/312/249
f 235/160/125 232/195/158 241/346/281 225/309/246
f 223/351/286 243/339/274 326/352/287 327/353/288
f 224/319/254 238/333/268 331/354/289 329/355/290
f 250/356/291 226/325/260 239/324/259 253/330/265
f 230/329/264 236/328/263 239/324/259 237/323/258
f 303/316/253 250/356/291 253/330/265 307/357/292
f 305/358/293 252/331/266 319/332/267 306/359/294
f 307/357/292 253/330/265 252/331/266 305/358/293
f 300/360/295 244/308/245 249/320/255 299/361/296
f 299/361/296 249/320/255 248/311/248 298/362/297
f 301/363/298 246/310/247 245/306/243 297/364/299
f 221/313/250 226/325/260 250/356/291 247/314/251
f 298/362/297 248/311/248 247/314/251 302/315/252
f 304/218/180 251/157/122 246/310/247 301/363/298
f 297/364/299 245/306/243 244/308/245 300/360/295
f 287/365/300 286/366/301 344/367/302 338/368/303
f 293/223/185 288/369/304 259/370/305 276/224/186
f 290/371/306 289/372/307 255/373/308 254/374/309
f 313/375/310 188/376/113 194/377/118 314/378/311
f 288/369/304 287/365/300 258/379/312 259/370/305
f 291/380/313 290/371/306 254/374/309 256/381/314
f 286/366/301 291/380/313 256/381/314 257/382/315
f 279/383/316 255/373/308 260/384/317 281/385/318
f 267/326/261 268/386/319 278/387/320 277/388/321
f 296/389/322 294/390/323 278/387/320 281/385/318
f 294/390/323 295/391/324 277/388/321 278/387/320
f 280/392/325 334/393/326 336/394/327 273/395/328
f 273/395/328 336/394/327 333/338/273 272/337/272
f 285/396/329 284/397/330 265/398/331 269/399/332
f 269/399/332 265/398/331 266/344/279 270/343/278
f 271/256/216 283/400/333 263/401/334 275/257/217
f 275/257/217 263/401/334 264/347/282 274/200/6
f 284/397/330 282/402/335 261/403/336 265/398/331
f 265/398/331 261/403/336 320/404/337
f 283/400/333 280/392/325 273/395/328 263/401/334
f 263/401/334 273/395/328 272/337/272 264/347/282
f 282/402/335 279/383/316 268/386/319 261/403/336
f 261/403/336 324/405/338 323/406/339 320/404/337
f 254/374/309 255/373/308 279/383/316 282/402/335
f 259/370/305 258/379/312 280/392/325 283/400/333
f 256/381/314 254/374/309 282/402/335 284/397/330
f 276/224/186 259/370/305 283/400/333 271/256/216
f 257/382/315 256/381/314 284/397/330 285/396/329
f 258/379/312 337/407/340 334/393/326 280/392/325
f 292/408/341 296/389/322 281/385/318 260/384/317
f 268/386/319 279/383/316 281/385/318 278/387/320
f 314/378/311 317/409/342 296/389/322 292/408/341
f 316/410/343 306/359/294 295/391/324 294/390/323
f 317/409/342 316/410/343 294/390/323 296/389/322
f 311/411/344 310/412/345 291/380/313 286/366/301
f 310/412/345 309/413/346 290/371/306 291/380/313
f 312/414/347 308/415/348 287/365/300 288/369/304
f 255/373/308 289/372/307 292/408/341 260/384/317
f 309/413/346 313/375/310 289/372/307 290/371/306
f 315/274/234 312/414/347 288/369/304 293/223/185
f 308/415/348 311/411/344 286/366/301 287/365/300
f 192/416/115 191/417/117 311/411/344 308/415/348
f 212/277/67 193/418/114 312/414/347 315/274/234
f 189/419/112 188/376/113 313/375/310 309/413/346
f 193/418/114 192/416/115 308/415/348 312/414/347
f 190/420/116 189/419/112 309/413/346 310/412/345
f 191/417/117 190/420/116 310/412/345 311/411/344
f 215/421/101 211/422/100 316/410/343 317/409/342
f 211/422/100 210/423/74 306/359/294 316/410/343
f 194/377/118 215/421/101 317/409/342 314/378/311
f 289/372/307 313/375/310 314/378/311 292/408/341
f 168/424/94 297/364/299 300/360/295 167/425/96
f 180/286/43 304/218/180 301/363/298 169/426/93
f 165/427/91 298/362/297 302/315/252 164/318/92
f 169/426/93 301/363/298 297/364/299 168/424/94
f 166/428/95 299/361/296 298/362/297 165/427/91
f 167/425/96 300/360/295 299/361/296 166/428/95
f 183/429/71 307/357/292 305/358/293 179/430/72
f 179/430/72 305/358/293 306/359/294 210/423/74
f 170/317/97 303/316/253 307/357/292 183/429/71
f 247/314/251 250/356/291 303/316/253 302/315/252
f 277/431/321 295/432/324 306/433/294 267/434/261
f 318/435/262 267/434/261 306/433/294 319/436/267
f 321/437/349 320/404/337 323/406/339 322/438/350
f 320/404/337 321/437/349 266/344/279 265/398/331
f 321/437/349 262/350/285 266/344/279
f 268/386/319 267/326/261 325/439/351 324/405/338
f 325/439/351 267/326/261 262/350/285
f 325/439/351 322/438/350 323/406/339 324/405/338
f 262/350/285 321/437/349 322/438/350 325/439/351
f 261/403/336 268/386/319 324/405/338
f 243/339/274 242/342/277 326/352/287
f 326/352/287 242/342/277 222/321/256 327/353/288
f 327/353/288 222/321/256 249/320/255 328/322/257
f 328/322/257 244/308/245 223/351/286 327/353/288
f 330/307/244 245/306/243 224/319/254 329/355/290
f 238/333/268 332/336/271 331/354/289
f 243/339/274 223/351/286 329/355/290 331/354/289
f 330/307/244 329/355/290 223/351/286 244/308/245
f 335/335/270 341/440/352 243/339/274 332/336/271
f 334/393/326 342/441/353 340/442/354 336/394/327
f 332/336/271 243/339/274 331/354/289
f 333/338/273 339/443/355 341/440/352 335/335/270
f 336/394/327 340/442/354 339/443/355 333/338/273
f 337/407/340 343/444/356 342/441/353 334/393/326
f 286/366/301 257/382/315 343/444/356 344/367/302
f 338/368/303 337/407/340 258/379/312 287/365/300
f 340/442/354 269/399/332 270/343/278 339/443/355
f 342/441/353 285/396/329 269/399/332 340/442/354
f 339/443/355 270/343/278 231/340/275 341/440/352
f 341/440/352 231/340/275 243/339/274
f 343/444/356 257/382/315 285/396/329 342/441/353
f 343/444/356 337/407/340 338/368/303 344/367/302
f 369/445/357 370/446/358 372/447/359 371/448/360
f 377/449/361 386/450/362 376/451/363 375/452/364
f 375/453/364 376/454/363 374/455/365 373/456/366
f 387/457/367 396/458/368 370/446/358 369/445/357
f 377/449/361 375/452/364 373/459/366 391/460/369
f 382/461/370 372/462/359 370/446/358 396/458/368
f 376/451/363 386/450/362 392/463/371 374/455/365
f 386/450/362 385/464/372 393/465/373 392/463/371
f 385/464/372 384/466/374 394/467/375 393/465/373
f 384/466/374 383/468/376 395/469/377 394/467/375
f 383/468/376 382/461/370 396/458/368 395/469/377
f 371/470/360 381/471/378 387/472/367 369/473/357
f 381/471/378 380/474/379 388/475/380 387/472/367
f 380/474/379 379/476/381 389/477/382 388/475/380
f 379/476/381 378/478/383 390/479/384 389/477/382
f 378/478/383 377/449/361 391/460/369 390/479/384
f 373/456/366 374/455/365 392/463/371 391/480/369
f 391/480/369 392/463/371 393/465/373 390/481/384
f 390/481/384 393/465/373 394/467/375 389/482/382
f 389/482/382 394/467/375 395/469/377 388/483/380
f 388/483/380 395/469/377 396/458/368 387/457/367
f 371/470/360 372/462/359 382/461/370 381/471/378
f 381/471/378 382/461/370 383/468/376 380/474/379
f 380/474/379 383/468/376 384/466/374 379/476/381
f 379/476/381 384/466/374 385/464/372 378/478/383
f 378/478/383 385/464/372 386/450/362 377/449/361
f 397/484/385 398/485/386 400/486/387 399/487/388
f 405/488/389 414/489/390 404/490/364 403/491/391
f 403/492/391 404/493/364 402/494/366 401/495/392
f 415/496/393 424/497/394 398/485/386 397/484/385
f 405/488/389 403/491/391 401/498/392 419/499/395
f 410/500/396 400/501/387 398/485/386 424/497/394
f 404/490/364 414/489/390 420/502/397 402/494/366
f 414/489/390 413/503/398 421/504/399 420/502/397
f 413/503/398 412/505/400 422/506/401 421/504/399
f 412/505/400 411/507/402 423/508/403 422/506/401
f 411/507/402 410/500/396 424/497/394 423/508/403
f 399/509/388 409/510/404 415/511/393 397/512/385
f 409/510/404 408/513/405 416/514/406 415/511/393
f 408/513/405 407/515/407 417/516/408 416/514/406
f 407/515/407 406/517/409 418/518/410 417/516/408
f 406/517/409 405/488/389 419/499/395 418/518/410
f 401/495/392 402/494/366 420/502/397 419/519/395
f 419/519/395 420/502/397 421/504/399 418/520/410
f 418/520/410 421/504/399 422/506/401 417/521/408
f 417/521/408 422/506/401 423/508/403 416/522/406
f 416/522/406 423/508/403 424/497/394 415/496/393
f 399/509/388 400/501/387 410/500/396 409/510/404
f 409/510/404 410/500/396 411/507/402 408/513/405
f 408/513/405 411/507/402 412/505/400 407/515/407
f 407/515/407 412/505/400 413/503/398 406/517/409
f 406/517/409 413/503/398 414/489/390 405/488/389
f 449/523/357 450/524/358 452/525/359 451/526/360
f 457/527/361 466/528/362 456/529/363 455/530/364
f 455/531/364 456/532/363 454/533/365 453/534/366
f 467/535/367 476/536/368 450/524/358 449/523/357
f 457/527/361 455/530/364 453/537/366 471/538/369
f 462/539/370 452/540/359 450/524/358 476/536/368
f 456/529/363 466/528/362 472/541/371 454/533/365
f 466/528/362 465/542/372 473/543/373 472/541/371
f 465/542/372 464/544/374 474/545/375 473/543/373
f 464/544/374 463/546/376 475/547/377 474/545/375
f 463/546/376 462/539/370 476/536/368 475/547/377
f 451/548/360 461/549/378 467/550/367 449/551/357
f 461/549/378 460/552/379 468/553/380 467/550/367
f 460/552/379 459/554/381 469/555/382 468/553/380
f 459/554/381 458/556/383 470/557/384 469/555/382
f 458/556/383 457/527/361 471/538/369 470/557/384
f 453/534/366 454/533/365 472/541/371 471/558/369
f 471/558/369 472/541/371 473/543/373 470/559/384
f 470/559/384 473/543/373 474/545/375 469/560/382
f 469/560/382 474/545/375 475/547/377 468/561/380
f 468/561/380 475/547/377 476/536/368 467/535/367
f 451/548/360 452/540/359 462/539/370 461/549/378
f 461/549/378 462/539/370 463/546/376 460/552/379
f 460/552/379 463/546/376 464/544/374 459/554/381
f 459/554/381 464/544/374 465/542/372 458/556/383
f 458/556/383 465/542/372 466/528/362 457/527/361
f 477/562/385 478/563/386 480/564/387 479/565/388
f 485/566/389 494/567/390 484/568/364 483/569/391
f 483/570/391 484/571/364 482/572/366 481/573/392
f 495/574/393 504/575/394 478/563/386 477/562/385
f 485/566/389 483/569/391 481/576/392 499/577/395
f 490/578/396 480/579/387 478/563/386 504/575/394
f 484/568/364 494/567/390 500/580/397 482/572/366
f 494/567/390 493/581/411 501/582/399 500/580/397
f 493/581/411 492/583/400 502/584/401 501/582/399
f 492/583/400 491/585/402 503/586/403 502/584/401
f 491/585/402 490/578/396 504/575/394 503/586/403
f 479/587/388 489/588/404 495/589/393 477/590/385
f 489/588/404 488/591/405 496/592/406 495/589/393
f 488/591/405 487/593/407 497/594/408 496/592/406
f 487/593/407 486/595/412 498/596/413 497/594/408
f 486/595/412 485/566/389 499/577/395 498/596/413
f 481/573/392 482/572/366 500/580/397 499/597/395
f 499/597/395 500/580/397 501/582/399 498/598/413
f 498/598/413 501/582/399 502/584/401 497/599/408
f 497/599/408 502/584/401 503/586/403 496/600/406
f 496/600/406 503/586/403 504/575/394 495/574/393
f 479/587/388 480/579/387 490/578/396 489/588/404
f 489/588/404 490/578/396 491/585/402 488/591/405
f 488/591/405 491/585/402 492/583/400 487/593/407
f 487/593/407 492/583/400 493/581/411 486/595/412
f 486/595/412 493/581/411 494/567/390 485/566/389
f 569/601/414 605/602/415 508/603/416 506/604/417
f 533/605/418 564/606/419 566/607/420 532/608/421
f 519/609/422 521/610/423 589/611/424 585/612/425
f 550/613/426 514/614/427 509/615/428 608/616/429
f 524/617/430 527/618/431 522/619/432 518/620/433
f 513/621/434 515/622/435 549/623/436 545/624/437
f 529/625/438 565/626/439 528/627/440 523/628/441
f 573/629/442 604/630/443 606/631/444 572/632/445
f 567/633/446 563/634/447 594/635/448 591/636/449
f 562/637/450 559/638/451 598/639/452 595/640/453
f 558/641/454 555/642/455 602/643/456 599/644/457
f 507/645/458 510/646/459 516/647/460 512/648/461
f 554/649/462 551/650/463 607/651/464 603/652/465
f 546/653/466 552/654/467 553/655/468 544/656/469
f 541/657/470 556/658/471 557/659/472 540/660/473
f 537/661/474 560/662/475 561/663/476 536/664/477
f 526/665/478 568/666/479 590/667/480 520/668/481
f 586/669/482 592/670/483 593/671/484 584/672/485
f 581/673/486 596/674/487 597/675/488 580/676/489
f 577/677/490 600/678/491 601/679/492 576/680/493
f 530/681/494 525/682/495 517/683/496 588/684/497
f 547/685/498 543/686/499 574/687/500 571/688/501
f 542/689/502 539/690/503 578/691/504 575/692/505
f 538/693/506 535/694/507 582/695/508 579/696/509
f 534/697/510 531/698/511 587/699/512 583/700/513
f 505/701/514 506/702/417 507/703/458
f 508/603/416 509/704/428 510/705/459
f 511/706/515 512/707/461 513/708/434
f 514/614/427 515/709/435 516/710/460
f 517/683/496 518/711/433 519/712/422
f 520/668/481 521/713/423 522/714/432
f 523/628/441 524/715/430 525/716/495
f 526/665/478 527/717/431 528/718/440
f 529/625/438 530/681/494 531/698/511 532/608/421
f 533/605/418 534/697/510 535/694/507 536/664/477
f 537/661/474 538/693/506 539/690/503 540/660/473
f 541/657/470 542/689/502 543/686/499 544/656/469
f 545/624/437 546/653/466 547/685/498 548/719/516
f 549/623/436 550/613/426 551/650/463 552/654/467
f 553/655/468 554/649/462 555/642/455 556/658/471
f 557/659/472 558/641/454 559/638/451 560/662/475
f 561/663/476 562/637/450 563/634/447 564/606/419
f 565/626/439 566/607/420 567/633/446 568/666/479
f 569/601/414 570/720/517 571/721/501 572/722/445
f 573/629/442 574/723/500 575/724/505 576/725/493
f 577/677/490 578/726/504 579/727/509 580/728/489
f 581/673/486 582/729/508 583/730/513 584/731/485
f 585/612/425 586/732/482 587/733/512 588/734/497
f 589/611/424 590/667/480 591/636/449 592/670/483
f 593/671/484 594/635/448 595/640/453 596/674/487
f 597/675/488 598/639/452 599/644/457 600/678/491
f 601/679/492 602/643/456 603/652/465 604/630/443
f 605/602/415 606/631/444 607/651/464 608/616/429
f 511/706/515 505/701/514 507/703/458 512/707/461
f 506/604/417 508/603/416 510/646/459 507/645/458
f 509/615/428 514/614/427 516/710/460 510/735/459
f 515/622/435 513/621/434 512/736/461 516/737/460
f 548/719/516 511/706/515 513/621/434 545/624/437
f 568/666/479 526/665/478 528/627/440 565/626/439
f 527/618/431 524/617/430 523/738/441 528/739/440
f 517/683/496 525/682/495 524/740/430 518/711/433
f 526/665/478 520/668/481 522/714/432 527/717/431
f 521/610/423 519/609/422 518/620/433 522/619/432
f 588/684/497 517/683/496 519/712/422 585/741/425
f 608/616/429 509/615/428 508/603/416 605/602/415
f 525/682/495 530/681/494 529/625/438 523/628/441
f 531/698/511 534/697/510 533/605/418 532/608/421
f 535/694/507 538/693/506 537/661/474 536/664/477
f 539/690/503 542/689/502 541/657/470 540/660/473
f 543/686/499 547/685/498 546/653/466 544/656/469
f 514/614/427 550/613/426 549/623/436 515/622/435
f 551/650/463 554/649/462 553/655/468 552/654/467
f 555/642/455 558/641/454 557/659/472 556/658/471
f 559/638/451 562/637/450 561/663/476 560/662/475
f 563/634/447 567/633/446 566/607/420 564/606/419
f 505/701/514 570/742/517 569/743/414 506/702/417
f 571/688/501 574/687/500 573/744/442 572/745/445
f 575/692/505 578/691/504 577/746/490 576/747/493
f 579/696/509 582/695/508 581/748/486 580/749/489
f 583/700/513 587/699/512 586/750/482 584/751/485
f 520/668/481 590/667/480 589/611/424 521/610/423
f 591/636/449 594/635/448 593/671/484 592/670/483
f 595/640/453 598/639/452 597/675/488 596/674/487
f 599/644/457 602/643/456 601/679/492 600/678/491
f 603/652/465 607/651/464 606/631/444 604/630/443
f 567/633/446 591/636/449 590/667/480 568/666/479
f 562/637/450 595/640/453 594/635/448 563/634/447
f 558/641/454 599/644/457 598/639/452 559/638/451
f 554/649/462 603/652/465 602/643/456 555/642/455
f 550/613/426 608/616/429 607/651/464 551/650/463
f 547/685/498 571/688/501 570/742/517 548/719/516
f 542/689/502 575/692/505 574/687/500 543/686/499
f 538/693/506 579/696/509 578/691/504 539/690/503
f 534/697/510 583/700/513 582/695/508 535/694/507
f 530/681/494 588/684/497 587/699/512 531/698/511
f 592/670/483 586/669/482 585/612/425 589/611/424
f 596/674/487 581/673/486 584/672/485 593/671/484
f 600/678/491 577/677/490 580/676/489 597/675/488
f 604/630/443 573/629/442 576/680/493 601/679/492
f 605/602/415 569/601/414 572/632/445 606/631/444
f 552/654/467 546/653/466 545/624/437 549/623/436
f 556/658/471 541/657/470 544/656/469 553/655/468
f 560/662/475 537/661/474 540/660/473 557/659/472
f 564/606/419 533/605/418 536/664/477 561/663/476
f 565/626/439 529/625/438 532/608/421 566/607/420
f 511/706/515 548/719/516 570/742/517 505/701/514
