# Blender v2.79 (sub 0) OBJ File: 'villageHouses.blend'
# www.blender.org
mtllib villageHouses_window2.mtl
o Cube.010_Cube.008
v 0.872215 -0.872215 -0.085413
v 0.872215 0.872215 -0.085413
v -0.872215 -0.872215 -0.085413
v -0.872215 0.872215 -0.085413
v 0.602153 -0.602153 -0.194575
v 0.602153 0.602153 -0.194575
v -0.602153 -0.602153 -0.194575
v -0.602153 0.602153 -0.194575
v -0.872215 0.872215 -0.194575
v -0.872215 -0.872215 -0.194575
v 0.872215 -0.872215 -0.194575
v 0.872215 0.872215 -0.194575
v -0.602153 0.602153 -0.117245
v -0.602153 -0.602153 -0.117245
v 0.602153 -0.602153 -0.117245
v 0.602153 0.602153 -0.117245
vt 0.138403 0.859485
vt 0.138391 0.985368
vt 0.129890 0.976860
vt 0.129890 0.867848
vt 0.112485 0.959325
vt 0.038336 0.959325
vt 0.043041 0.954570
vt 0.107780 0.954570
vt 0.020931 0.867848
vt 0.020931 0.976860
vt 0.012418 0.985368
vt 0.012430 0.859196
vt 0.112485 0.885383
vt 0.038336 0.885383
vt 0.107780 0.890138
vt 0.043041 0.890138
vn -1.0000 0.0000 0.0000
vn 0.0000 -1.0000 0.0000
vn 1.0000 0.0000 0.0000
vn 0.0000 1.0000 0.0000
vn -0.0000 0.0000 -1.0000
usemtl Material.001
s off
f 3/1/1 4/2/1 9/3/1 10/4/1
f 8/5/2 6/6/2 16/7/2 13/8/2
f 11/9/3 12/10/3 2/11/3 1/12/3
f 3/1/2 10/4/2 11/9/2 1/12/2
f 9/3/4 4/2/4 2/11/4 12/10/4
f 8/5/5 7/13/5 10/4/5 9/3/5
f 7/13/5 5/14/5 11/9/5 10/4/5
f 6/6/5 8/5/5 9/3/5 12/10/5
f 5/14/5 6/6/5 12/10/5 11/9/5
f 14/15/5 13/8/5 16/7/5 15/16/5
f 7/13/3 8/5/3 13/8/3 14/15/3
f 6/6/1 5/14/1 15/16/1 16/7/1
f 5/14/4 7/13/4 14/15/4 15/16/4
